{
  "cli": {
    "version": ">= 0.54.1",
    "requireCommit": true
  },
  "build": {
    "development": {
      "developmentClient": true,
      "distribution": "internal",
      "channel": "development",
      "android": {
        "credentialsSource": "remote"
      },
      "ios": {
        "simulator": true
      }
    },
    "preview": {
      "distribution": "store",
      "channel": "preview",
      "ios": {
        "autoIncrement": false,
        "simulator": false,
        "enterpriseProvisioning": "universal"
      },
      "android": {
        "autoIncrement": false,
        "credentialsSource": "remote"
      }
    },
    "previewapk": {
      "distribution": "internal",
      "channel": "preview",
      "android": {
        "autoIncrement": false,
        "credentialsSource": "remote"
      }
    },
    "production": {
      "extends": "preview",
      "channel": "production",
      "distribution": "store"
    }
  },
  "submit": {
    "preview": {
      "android": {
        "track": "internal"
      },
      "ios": {
        "appleTeamId": "YLZHTFR3VK"
      }
    },
    "production": {
      "android": {
        "track": "internal"
      },
      "ios": {
        "appleTeamId": "YLZHTFR3VK"
      }
    }
  }
}
