<svg width="21" height="14" viewBox="0 0 21 14" fill="none" xmlns="http://www.w3.org/2000/svg">
<path d="M8.434 10.5224C8.15939 12.3275 6.6613 13.3121 5.22967 13.2398C4.27664 13.1912 3.50266 12.7891 2.91771 12.0371C2.33277 11.2852 2.17573 10.4377 2.34024 9.49418H1.05236C0.823868 9.49418 0.595372 9.49834 0.368124 9.49211C0.107639 9.48504 -0.0331971 9.33424 0.00668573 9.07666C0.166632 8.04137 0.374355 7.02103 0.846302 6.07548C1.18614 5.39456 1.65227 4.82125 2.37099 4.49679C2.4011 4.47887 2.42709 4.45482 2.44728 4.42618C2.46747 4.39755 2.48139 4.36498 2.48814 4.33061C2.68631 3.12 3.59614 2.29492 4.82046 2.26335C5.72474 2.24091 6.63 2.24327 7.53622 2.27041C8.69656 2.30614 9.70859 3.34226 9.74183 4.50593C9.74141 4.66213 9.69424 4.81464 9.60639 4.9438C9.34424 5.32311 9.11575 5.7128 9.04138 6.17477C8.95206 6.72773 9.16602 7.15564 9.62301 7.44936C10.7065 8.1444 12.4098 7.94 13.3018 7.01356C13.8826 6.41033 14.0425 5.66419 13.9594 4.86445C13.8228 3.50055 13.2 2.3265 12.475 1.19482C12.4244 1.11547 12.3188 1.06229 12.2279 1.01992C11.6047 0.729107 10.9649 0.784777 10.3235 0.954279C10.1905 0.989592 10.0605 1.03737 9.92753 1.07393C9.72313 1.1296 9.55778 1.05066 9.48882 0.870359C9.41986 0.690055 9.48882 0.508921 9.6928 0.434972C10.6259 0.0947217 11.5681 -0.0378056 12.5133 0.389688C12.6271 0.441203 12.7002 0.431233 12.787 0.354375C12.8739 0.277518 12.9798 0.196921 13.0779 0.121726C13.2802 -0.0328202 13.4476 -0.0249267 13.6296 0.150807C13.7924 0.308261 13.9524 0.469454 14.119 0.63397C14.4646 0.169502 14.9432 0.00290812 15.4966 0C15.8439 0 15.9702 0.124634 15.9706 0.472777C15.9706 0.888223 15.9706 1.30298 15.9706 1.71704C15.9706 2.0602 15.9191 2.12667 15.583 2.22887C15.519 2.24839 15.4584 2.27249 15.3711 2.30199C16.0159 3.3406 16.5364 4.41577 16.8908 5.57944C17.585 5.46754 18.2954 5.51153 18.9705 5.70822C19.6622 5.91222 20.2959 6.27662 20.8201 6.77177C21.064 6.99902 21.0548 7.16187 20.8234 7.40449C20.5704 7.66954 20.329 7.94457 20.0827 8.21669L20.0258 8.18096C20.0536 8.22541 20.0794 8.27153 20.1089 8.3139C21.4728 10.2083 20.4587 12.7646 18.1691 13.2004C16.529 13.5128 14.8826 12.3533 14.605 10.6849C14.5843 10.5602 14.5531 10.5079 14.4152 10.5083C12.4523 10.5127 10.4894 10.514 8.52623 10.512C8.50089 10.5108 8.47555 10.5178 8.434 10.5224ZM8.73146 5.00861C8.66084 5.00363 8.62677 4.99906 8.5927 4.99906C6.77527 4.99906 4.95797 4.99906 3.14081 4.99906C3.06524 5.00022 2.99018 5.01168 2.91771 5.03313C2.24386 5.22631 1.79518 5.69161 1.51101 6.29483C1.28086 6.78465 1.12216 7.31185 0.960134 7.82866C0.862504 8.13858 0.81722 8.46554 0.743687 8.80662C0.811587 8.80155 0.87977 8.80155 0.94767 8.80662C1.1529 8.84359 1.24388 8.75178 1.32157 8.56151C1.59613 7.89366 2.03071 7.30357 2.58702 6.84322C3.66718 5.94503 4.89233 5.54579 6.28449 5.83784C7.8287 6.16106 8.88227 7.48509 8.9018 9.06586C8.90512 9.35044 8.79336 9.47299 8.51418 9.49211C8.47264 9.49501 8.43442 9.50125 8.37792 9.50789C8.39578 9.61092 8.41157 9.7044 8.4286 9.8012H13.013C13.0826 8.98666 13.3564 8.2028 13.809 7.52206C12.7231 8.48548 11.4693 8.73973 10.0966 8.40156C8.51128 8.01104 7.90182 6.62138 8.64713 5.17521C8.67164 5.12951 8.69449 5.08173 8.73105 5.00861H8.73146ZM15.254 10.1601C15.2521 10.7927 15.5015 11.4001 15.9474 11.8487C16.3932 12.2974 16.999 12.5506 17.6316 12.5527C18.9481 12.5647 20.0345 11.4833 20.0345 10.1618C20.0262 9.53332 19.7707 8.93339 19.3234 8.49189C18.876 8.05039 18.2728 7.80284 17.6442 7.80284C17.0157 7.80284 16.4124 8.05039 15.9651 8.49189C15.5177 8.93339 15.2622 9.53332 15.254 10.1618V10.1601ZM8.18474 8.79623C8.17352 8.70899 8.16853 8.63463 8.15358 8.56234C7.85446 7.12157 6.58153 6.22919 4.97376 6.47846C3.66842 6.68078 2.71705 7.42485 2.07768 8.57189C2.04029 8.63878 2.01661 8.71273 1.98088 8.79623H8.18474ZM6.6667 9.49543C6.95128 10.2432 6.83288 10.8784 6.19558 11.3413C5.68417 11.7131 5.11127 11.7284 4.58407 11.3766C3.89567 10.9196 3.76481 10.2619 4.0552 9.49418C3.77062 9.49418 3.50806 9.50291 3.24675 9.49086C3.0976 9.4838 3.04775 9.5378 3.01701 9.67989C2.8043 10.6632 3.27541 11.7201 4.16197 12.2253C5.07595 12.745 6.2392 12.6304 6.97122 11.9345C7.60519 11.3288 7.86235 10.5864 7.70947 9.71645C7.69576 9.63751 7.62638 9.50872 7.57528 9.50623C7.28031 9.48504 6.98534 9.49543 6.66504 9.49543H6.6667ZM8.99818 4.29155C8.94334 3.66839 8.27406 3.03234 7.60602 2.97293C7.31064 2.94676 7.01276 2.94219 6.71614 2.94385C6.0186 2.94717 5.31982 2.93762 4.62395 2.97584C3.9422 3.01364 3.28788 3.65592 3.21974 4.29155H8.99818ZM14.5685 9.80701C14.7637 8.65207 15.3533 7.79002 16.4417 7.32929C17.5302 6.86857 18.5563 7.04596 19.5223 7.7032L20.0939 7.07338C19.1018 6.13987 17.2664 5.94088 15.8759 6.62595C14.5336 7.28858 13.7338 8.72062 13.7392 9.80701H14.5685ZM16.2178 5.74645C15.6108 3.87445 14.6873 2.21973 13.3122 0.817182C13.2532 0.872436 13.2062 0.910242 13.156 0.955525C13.1975 1.02698 13.237 1.09138 13.2764 1.15494C13.7804 1.96838 14.1996 2.82254 14.4551 3.74649C14.7583 4.84285 14.7982 5.92717 14.2087 6.95872C14.1981 6.99199 14.1907 7.02622 14.1867 7.06092C14.7716 6.43941 15.4247 5.99571 16.2178 5.74645ZM5.3597 9.45762C5.19851 9.49917 5.01198 9.50249 4.8807 9.58932C4.58988 9.78167 4.51884 10.2083 4.69125 10.5166C4.77551 10.6781 4.9152 10.8038 5.08467 10.8705C5.25413 10.9373 5.442 10.9407 5.61376 10.88C5.78553 10.8194 5.92965 10.6989 6.01967 10.5405C6.10968 10.3822 6.13954 10.1967 6.10377 10.0181C6.03771 9.64914 5.82043 9.49418 5.3597 9.45762ZM15.2722 0.710412C15.2022 0.718312 15.1328 0.730943 15.0645 0.748218C14.8568 0.818844 14.6844 0.955941 14.6399 1.16366C14.6192 1.26046 14.7467 1.3905 14.8098 1.50391C14.8298 1.53964 14.8643 1.56748 14.8826 1.60404C14.9478 1.73656 15.0508 1.67508 15.1281 1.63852C15.1871 1.61068 15.261 1.5384 15.2648 1.48231C15.2806 1.23429 15.2722 0.986684 15.2722 0.710412Z" fill="#1D2A40"/>
<path d="M17.7479 11.6648C15.8281 11.6175 15.8722 8.78332 17.7691 8.76587C19.6627 8.79204 19.6478 11.674 17.7479 11.6648ZM17.0001 10.2249C17.0317 11.222 18.5069 11.2016 18.5231 10.2104C18.487 9.22037 17.0122 9.22701 16.9985 10.2249H17.0001Z" fill="#1D2A40"/>
</svg>
