<svg width="36" height="36" viewBox="0 0 36 36" fill="none" xmlns="http://www.w3.org/2000/svg">
<path d="M32 18C32 25.732 25.732 32 18 32C10.268 32 4 25.732 4 18C4 10.268 10.268 4 18 4C25.732 4 32 10.268 32 18Z" fill="#000000" stroke="#000000" stroke-width="2" stroke-linecap="round" stroke-linejoin="round"/>
<path d="M16.3506 20.9231C16.1438 22.2823 15.0158 23.0237 13.9378 22.9693C13.2202 22.9327 12.6374 22.6299 12.197 22.0637C11.7565 21.4975 11.6383 20.8593 11.7621 20.1489H10.7924C10.6204 20.1489 10.4483 20.152 10.2772 20.1473C10.081 20.142 9.975 20.0285 10.005 19.8345C10.1255 19.055 10.2819 18.2867 10.6372 17.5747C10.8931 17.062 11.2441 16.6303 11.7853 16.386C11.808 16.3725 11.8275 16.3544 11.8427 16.3328C11.8579 16.3113 11.8684 16.2867 11.8735 16.2608C12.0227 15.3493 12.7078 14.728 13.6297 14.7042C14.3106 14.6874 14.9922 14.6891 15.6746 14.7096C16.5483 14.7365 17.3103 15.5166 17.3354 16.3929C17.3351 16.5105 17.2995 16.6253 17.2334 16.7226C17.036 17.0082 16.8639 17.3016 16.8079 17.6495C16.7407 18.0658 16.9018 18.388 17.2459 18.6092C18.0617 19.1325 19.3443 18.9786 20.0159 18.281C20.4532 17.8268 20.5737 17.265 20.5111 16.6628C20.4082 15.6358 19.9393 14.7518 19.3934 13.8997C19.3552 13.8399 19.2758 13.7999 19.2073 13.768C18.7381 13.549 18.2563 13.5909 17.7733 13.7185C17.6732 13.7451 17.5753 13.7811 17.4752 13.8086C17.3213 13.8506 17.1968 13.7911 17.1449 13.6554C17.0929 13.5196 17.1449 13.3832 17.2985 13.3275C18.001 13.0713 18.7105 12.9715 19.4222 13.2934C19.5079 13.3322 19.563 13.3247 19.6283 13.2668C19.6937 13.209 19.7735 13.1483 19.8473 13.0917C19.9997 12.9753 20.1257 12.9812 20.2627 13.1136C20.3854 13.2321 20.5058 13.3535 20.6312 13.4774C20.8915 13.1276 21.2519 13.0022 21.6686 13C21.9301 13 22.0252 13.0938 22.0255 13.356C22.0255 13.6688 22.0255 13.9811 22.0255 14.2929C22.0255 14.5513 21.9867 14.6013 21.7336 14.6783C21.6854 14.693 21.6398 14.7111 21.5741 14.7333C22.0596 15.5154 22.4515 16.325 22.7184 17.2012C23.2411 17.1169 23.776 17.1501 24.2844 17.2982C24.8052 17.4518 25.2823 17.7261 25.677 18.099C25.8607 18.2701 25.8538 18.3927 25.6795 18.5754C25.489 18.775 25.3073 18.9821 25.1218 19.187L25.0789 19.1601C25.0999 19.1935 25.1193 19.2283 25.1415 19.2602C26.1685 20.6866 25.4049 22.6114 23.6809 22.9396C22.4459 23.1748 21.2062 22.3017 20.9972 21.0454C20.9816 20.9516 20.9581 20.9122 20.8543 20.9125C19.3763 20.9158 17.8982 20.9168 16.4201 20.9153C16.401 20.9144 16.3819 20.9197 16.3506 20.9231ZM16.5746 16.7714C16.5214 16.7676 16.4958 16.7642 16.4701 16.7642C15.1016 16.7642 13.7332 16.7642 12.365 16.7642C12.3081 16.765 12.2515 16.7737 12.197 16.7898C11.6896 16.9353 11.3517 17.2856 11.1378 17.7399C10.9645 18.1087 10.845 18.5056 10.723 18.8948C10.6494 19.1282 10.6153 19.3743 10.56 19.6312C10.6111 19.6274 10.6624 19.6274 10.7136 19.6312C10.8681 19.659 10.9366 19.5899 10.9951 19.4466C11.2019 18.9437 11.5291 18.4994 11.948 18.1528C12.7613 17.4765 13.6838 17.1758 14.7321 17.3958C15.8948 17.6391 16.6881 18.6361 16.7028 19.8264C16.7053 20.0407 16.6212 20.1329 16.411 20.1473C16.3797 20.1495 16.3509 20.1542 16.3084 20.1592C16.3218 20.2368 16.3337 20.3072 16.3465 20.3801H19.7985C19.8509 19.7667 20.057 19.1765 20.3979 18.6639C19.5802 19.3894 18.6361 19.5808 17.6025 19.3262C16.4088 19.0321 15.9499 17.9857 16.5111 16.8968C16.5295 16.8624 16.5467 16.8264 16.5743 16.7714H16.5746ZM21.4859 20.6503C21.4845 21.1266 21.6723 21.584 22.008 21.9218C22.3437 22.2596 22.7999 22.4503 23.2761 22.4519C24.2675 22.461 25.0855 21.6467 25.0855 20.6516C25.0793 20.1784 24.8869 19.7266 24.55 19.3942C24.2132 19.0618 23.759 18.8754 23.2857 18.8754C22.8124 18.8754 22.3582 19.0618 22.0213 19.3942C21.6845 19.7266 21.4921 20.1784 21.4859 20.6516V20.6503ZM16.1629 19.6234C16.1545 19.5577 16.1507 19.5017 16.1394 19.4472C15.9142 18.3624 14.9557 17.6904 13.7451 17.8781C12.7622 18.0305 12.0459 18.5907 11.5644 19.4544C11.5363 19.5048 11.5185 19.5605 11.4916 19.6234H16.1629ZM15.0199 20.1498C15.2341 20.7129 15.145 21.1912 14.6651 21.5397C14.28 21.8197 13.8487 21.8312 13.4517 21.5663C12.9333 21.2222 12.8348 20.727 13.0535 20.1489C12.8392 20.1489 12.6415 20.1555 12.4447 20.1464C12.3324 20.1411 12.2949 20.1817 12.2717 20.2887C12.1116 21.0292 12.4663 21.825 13.1339 22.2054C13.8221 22.5967 14.698 22.5104 15.2492 21.9864C15.7265 21.5303 15.9202 20.9713 15.805 20.3163C15.7947 20.2568 15.7425 20.1598 15.704 20.158C15.4819 20.142 15.2598 20.1498 15.0186 20.1498H15.0199ZM16.7754 16.2314C16.7341 15.7622 16.2302 15.2833 15.7272 15.2385C15.5047 15.2188 15.2804 15.2154 15.0571 15.2166C14.5319 15.2192 14.0057 15.212 13.4817 15.2407C12.9684 15.2692 12.4757 15.7528 12.4244 16.2314H16.7754ZM20.9697 20.3844C21.1167 19.5148 21.5606 18.8657 22.3802 18.5188C23.1998 18.1719 23.9725 18.3054 24.6998 18.8003L25.1302 18.3261C24.3832 17.6232 23.0012 17.4733 21.9542 17.9892C20.9434 18.4881 20.3413 19.5664 20.3453 20.3844H20.9697ZM22.2116 17.3269C21.7546 15.9174 21.0592 14.6714 20.0237 13.6153C19.9793 13.6569 19.944 13.6854 19.9061 13.7195C19.9374 13.7733 19.9671 13.8218 19.9968 13.8696C20.3763 14.4821 20.6919 15.1253 20.8843 15.821C21.1127 16.6466 21.1427 17.463 20.6988 18.2397C20.6908 18.2648 20.6852 18.2906 20.6822 18.3167C21.1227 17.8487 21.6144 17.5146 22.2116 17.3269ZM14.0357 20.1214C13.9144 20.1526 13.7739 20.1551 13.675 20.2205C13.4561 20.3654 13.4026 20.6866 13.5324 20.9187C13.5958 21.0403 13.701 21.135 13.8286 21.1852C13.9562 21.2355 14.0977 21.2381 14.227 21.1924C14.3564 21.1468 14.4649 21.056 14.5327 20.9368C14.6004 20.8175 14.6229 20.6778 14.596 20.5434C14.5463 20.2656 14.3826 20.1489 14.0357 20.1214ZM21.4996 13.5349C21.4469 13.5409 21.3947 13.5504 21.3432 13.5634C21.1868 13.6166 21.057 13.7198 21.0235 13.8762C21.0079 13.9491 21.1039 14.047 21.1515 14.1324C21.1665 14.1593 21.1924 14.1803 21.2062 14.2078C21.2553 14.3076 21.3329 14.2613 21.3911 14.2338C21.4355 14.2128 21.4912 14.1584 21.494 14.1161C21.5059 13.9294 21.4996 13.7429 21.4996 13.5349Z" fill="white"/>
<path d="M23.3638 21.783C21.9182 21.7473 21.9514 19.6132 23.3797 19.6001C24.8055 19.6198 24.7943 21.7898 23.3638 21.783ZM22.8007 20.6987C22.8245 21.4495 23.9353 21.4342 23.9475 20.6878C23.9203 19.9423 22.8097 19.9473 22.7994 20.6987H22.8007Z" fill="white"/>
</svg>
