<svg width="25" height="30" viewBox="0 0 25 30" fill="none" xmlns="http://www.w3.org/2000/svg">
<path d="M5.03655 4.3077C4.93746 4.30771 4.84195 4.27103 4.76874 4.20485C4.69554 4.13867 4.64994 4.04777 4.64088 3.94998C4.63183 3.85219 4.65998 3.75458 4.7198 3.6763C4.77963 3.59802 4.86681 3.54472 4.96425 3.52687L24.0451 0.00776638C24.0968 -0.00254972 24.1499 -0.00258902 24.2016 0.00765074C24.2532 0.0178905 24.3023 0.038205 24.3459 0.0674124C24.3896 0.0966197 24.4269 0.134137 24.4558 0.177782C24.4847 0.221427 24.5045 0.270328 24.5142 0.32164C24.5238 0.372953 24.5231 0.425653 24.512 0.476675C24.5009 0.527697 24.4796 0.576022 24.4495 0.618839C24.4194 0.661656 24.381 0.69811 24.3365 0.726082C24.2921 0.754053 24.2424 0.772983 24.1905 0.78177L5.10938 4.30087C5.08536 4.30533 5.06098 4.30761 5.03655 4.3077Z" fill="black"/>
<path d="M24.5065 3.06987L20.774 3.50575L5.4068 5.30162C5.38222 5.30288 5.35759 5.30288 5.33302 5.30162C5.23629 5.29418 5.14585 5.25293 5.07904 5.18579C5.01223 5.11864 4.97375 5.03033 4.97099 4.93779C4.96822 4.84524 5.00136 4.75498 5.06405 4.68431C5.12675 4.61365 5.21458 4.56755 5.3107 4.55486L20.686 2.75699L24.4104 2.32312C24.5142 2.31096 24.6187 2.33861 24.701 2.39999C24.7834 2.46137 24.8368 2.55144 24.8496 2.6504C24.8623 2.74936 24.8333 2.8491 24.769 2.92767C24.7047 3.00624 24.6102 3.05721 24.5065 3.06937V3.06987Z" fill="black"/>
<path d="M21.671 13.3986H13.3657C13.4236 13.274 13.4912 13.1543 13.568 13.0406C13.8651 12.6312 14.0216 12.1358 14.014 11.6291C14.0142 11.3579 13.9603 11.0894 13.8557 10.8395C13.751 10.5895 13.5977 10.3632 13.4046 10.1737C13.2732 10.0553 13.168 9.91031 13.0959 9.74827C13.0238 9.58624 12.9865 9.41076 12.9863 9.23327C12.9783 8.87823 13.0917 8.53116 13.3074 8.24997C13.5974 7.83732 13.7532 7.34444 13.7532 6.83915C13.7532 6.33385 13.5974 5.84097 13.3074 5.42833C13.0917 5.14693 12.9783 4.7997 12.9863 4.4445C12.9783 4.08939 13.0917 3.74224 13.3074 3.46094C13.6044 3.05194 13.7608 2.55685 13.7531 2.05052C13.7531 1.94595 13.7118 1.84567 13.6383 1.77173C13.5647 1.69779 13.465 1.65625 13.361 1.65625C13.257 1.65625 13.1572 1.69779 13.0837 1.77173C13.0101 1.84567 12.9688 1.94595 12.9688 2.05052C12.9768 2.40555 12.8635 2.75262 12.6478 3.03382C12.3507 3.4429 12.1942 3.93806 12.2018 4.4445C12.1941 4.95095 12.3507 5.44614 12.6478 5.85519C12.8564 6.14035 12.9689 6.48505 12.9689 6.83902C12.9689 7.19298 12.8564 7.53768 12.6478 7.82284C12.3507 8.23181 12.1942 8.72691 12.2018 9.23327C12.2017 9.50457 12.2556 9.77315 12.3604 10.0232C12.4652 10.2732 12.6187 10.4995 12.812 10.6889C12.9434 10.8073 13.0486 10.9522 13.1207 11.1142C13.1928 11.2762 13.2301 11.4516 13.2303 11.6291C13.2383 11.9845 13.125 12.332 12.9092 12.6137C12.744 12.8527 12.6203 13.1181 12.5432 13.3986H11.4214C11.4763 13.2869 11.5391 13.1794 11.6094 13.0768C11.9073 12.6786 12.0651 12.192 12.058 11.6938C12.0578 11.4264 12.0033 11.162 11.8978 10.9166C11.7924 10.6712 11.6383 10.45 11.445 10.2665C11.3148 10.1551 11.2102 10.0167 11.1385 9.86067C11.0667 9.70466 11.0296 9.53485 11.0296 9.36298C11.0296 9.19112 11.0667 9.0213 11.1385 8.86529C11.2102 8.70929 11.3148 8.57081 11.445 8.45945C11.6385 8.27625 11.7927 8.05517 11.8982 7.80981C12.0036 7.56445 12.058 7.3 12.058 7.03273C12.058 6.76546 12.0036 6.50102 11.8982 6.25566C11.7927 6.0103 11.6385 5.78922 11.445 5.60601C11.3156 5.49397 11.2116 5.35538 11.1399 5.19955C11.0683 5.04373 11.0306 4.87429 11.0296 4.70262C11.0223 4.35922 11.135 4.02413 11.348 3.75559C11.6458 3.35749 11.8036 2.87114 11.7966 2.37303C11.7966 2.26846 11.7553 2.16818 11.6817 2.09424C11.6082 2.0203 11.5084 1.97876 11.4044 1.97876C11.3004 1.97876 11.2007 2.0203 11.1272 2.09424C11.0536 2.16818 11.0123 2.26846 11.0123 2.37303C11.0196 2.71659 10.9072 3.0519 10.6944 3.32084C10.3964 3.71889 10.2386 4.20527 10.2458 4.70341C10.2461 4.97064 10.3006 5.235 10.406 5.48032C10.5114 5.72564 10.6655 5.94675 10.8588 6.13013C10.989 6.24144 11.0936 6.37986 11.1653 6.53583C11.237 6.69179 11.2742 6.86157 11.2742 7.03339C11.2742 7.20522 11.237 7.37499 11.1653 7.53095C11.0936 7.68692 10.989 7.82535 10.8588 7.93666C10.6653 8.11993 10.5111 8.34106 10.4057 8.58646C10.3003 8.83186 10.2459 9.09633 10.2459 9.36364C10.2459 9.63094 10.3003 9.89542 10.4057 10.1408C10.5111 10.3862 10.6653 10.6073 10.8588 10.7906C10.9883 10.9027 11.0924 11.0414 11.1641 11.1973C11.2358 11.3532 11.2734 11.5228 11.2745 11.6945C11.2813 12.038 11.1686 12.373 10.9558 12.6418C10.7929 12.8719 10.6692 13.1276 10.5898 13.3986H9.43745C9.48971 13.3001 9.54795 13.2049 9.61182 13.1136C9.91093 12.7264 10.0702 12.2484 10.0636 11.7582C10.0627 11.4947 10.0075 11.2343 9.90133 10.9935C9.79517 10.7526 9.64041 10.5366 9.44686 10.359C9.31812 10.2545 9.21427 10.1224 9.14292 9.97232C9.07158 9.82223 9.03455 9.65799 9.03455 9.49164C9.03455 9.32529 9.07158 9.16105 9.14292 9.01096C9.21427 8.86088 9.31812 8.72874 9.44686 8.62426C9.64105 8.44732 9.79624 8.23147 9.90244 7.99059C10.0086 7.74971 10.0635 7.48915 10.0635 7.22566C10.0635 6.96218 10.0086 6.70161 9.90244 6.46073C9.79624 6.21985 9.64105 6.004 9.44686 5.82707C9.31973 5.72118 9.21703 5.58875 9.14589 5.43897C9.07474 5.28919 9.03685 5.12565 9.03485 4.95968C9.02888 4.62809 9.14077 4.30525 9.35039 4.04919C9.64952 3.66235 9.80883 3.18469 9.80214 2.69475C9.80214 2.59018 9.76083 2.4899 9.68729 2.41596C9.61374 2.34202 9.514 2.30048 9.41 2.30048C9.306 2.30048 9.20625 2.34202 9.13271 2.41596C9.05917 2.4899 9.01786 2.59018 9.01786 2.69475C9.02388 3.02642 8.91199 3.34938 8.70231 3.6055C8.40322 3.99226 8.24391 4.46982 8.25056 4.95968C8.25137 5.2231 8.30663 5.48348 8.41284 5.72429C8.51905 5.9651 8.67389 6.18109 8.86753 6.35854C8.99632 6.463 9.10021 6.59512 9.17158 6.74521C9.24296 6.8953 9.28 7.05956 9.28 7.22592C9.28 7.39229 9.24296 7.55654 9.17158 7.70664C9.10021 7.85673 8.99632 7.98885 8.86753 8.09331C8.67326 8.27025 8.518 8.48613 8.41174 8.72706C8.30548 8.96799 8.25059 9.22862 8.25059 9.49217C8.25059 9.75572 8.30548 10.0163 8.41174 10.2573C8.518 10.4982 8.67326 10.7141 8.86753 10.891C8.99457 10.997 9.0972 11.1294 9.16829 11.2792C9.23939 11.429 9.27726 11.5925 9.27929 11.7584C9.28549 12.0905 9.17349 12.4139 8.96348 12.6702C8.80144 12.8906 8.67769 13.1369 8.59748 13.3988H7.51595C7.56196 13.3163 7.61633 13.2372 7.67672 13.1504C7.97677 12.7744 8.13748 12.3051 8.13135 11.8231C8.12996 11.5635 8.07394 11.3071 7.96697 11.0708C7.86001 10.8345 7.70451 10.6236 7.51072 10.4521C7.38386 10.3544 7.28107 10.2286 7.21033 10.0846C7.13959 9.94052 7.1028 9.78202 7.1028 9.62136C7.1028 9.4607 7.13959 9.3022 7.21033 9.15814C7.28107 9.01408 7.38386 8.88833 7.51072 8.79064C7.70562 8.6201 7.86188 8.40952 7.96896 8.17311C8.07604 7.93669 8.13145 7.67994 8.13145 7.42017C8.13145 7.16039 8.07604 6.90364 7.96896 6.66722C7.86188 6.43081 7.70562 6.22023 7.51072 6.0497C7.38611 5.9499 7.28493 5.8237 7.21439 5.68009C7.14385 5.53648 7.10569 5.37899 7.10263 5.21884C7.09648 4.8986 7.2082 4.58737 7.41634 4.34489C7.71644 3.96906 7.87717 3.49997 7.87097 3.01805C7.87097 2.91348 7.82965 2.8132 7.75611 2.73926C7.68257 2.66532 7.58283 2.62378 7.47882 2.62378C7.37482 2.62378 7.27508 2.66532 7.20154 2.73926C7.12799 2.8132 7.08668 2.91348 7.08668 3.01805C7.09282 3.33836 6.9811 3.64968 6.77296 3.89227C6.47297 4.26796 6.31226 4.73684 6.31834 5.21858C6.31977 5.47815 6.3758 5.73448 6.48277 5.97072C6.58973 6.20696 6.74521 6.41778 6.93897 6.58931C7.06583 6.68695 7.16861 6.81265 7.23935 6.95667C7.31009 7.10069 7.34689 7.25915 7.34689 7.41977C7.34689 7.58039 7.31009 7.73886 7.23935 7.88288C7.16861 8.02689 7.06583 8.15259 6.93897 8.25023C6.74406 8.42081 6.58779 8.63144 6.48071 8.8679C6.37362 9.10435 6.31821 9.36115 6.31821 9.62096C6.31821 9.88078 6.37362 10.1376 6.48071 10.374C6.58779 10.6105 6.74406 10.8211 6.93897 10.9917C7.06378 11.0914 7.16516 11.2176 7.23588 11.3613C7.3066 11.505 7.34492 11.6625 7.34811 11.8228C7.3543 12.1433 7.24259 12.4548 7.03439 12.6976C6.87417 12.9089 6.75045 13.1459 6.66839 13.3986H1.52451C1.12035 13.399 0.732854 13.5606 0.447065 13.8479C0.161276 14.1353 0.00053731 14.5249 0.00012207 14.9312V16.0877C0.00012207 21.0166 2.69729 25.0507 6.75231 26.8436C6.80664 27.2891 6.99218 27.708 7.2851 28.0467C7.57801 28.3854 7.96494 28.6283 8.39618 28.7442C10.4949 29.2976 12.7001 29.2976 14.7988 28.7442C15.2303 28.6284 15.6174 28.3855 15.9105 28.0467C16.2035 27.7079 16.3891 27.2887 16.4432 26.8431C20.4985 25.0505 23.1954 21.0158 23.1954 16.0872V14.9307C23.1949 14.5244 23.0341 14.135 22.7483 13.8477C22.4625 13.5605 22.0751 13.399 21.671 13.3986ZM14.596 27.9822C12.6299 28.4967 10.5656 28.4967 8.59957 27.9822C8.39719 27.9275 8.20899 27.8294 8.04789 27.6947C7.88679 27.5599 7.7566 27.3917 7.66627 27.2016C10.2181 28.0607 12.9788 28.0607 15.5306 27.2016C15.4401 27.3918 15.3097 27.5601 15.1483 27.6948C14.987 27.8296 14.7986 27.9276 14.596 27.9822ZM11.5979 27.0557C5.88907 27.0557 1.48321 23.01 0.862315 17.4451H22.3332C21.7126 23.011 17.3067 27.0557 11.5979 27.0557ZM22.4111 16.0856C22.4111 16.2607 22.4064 16.4339 22.3991 16.6066H0.796435C0.789376 16.4339 0.784409 16.2607 0.784409 16.0856V14.9291C0.784617 14.7318 0.862659 14.5427 1.00141 14.4032C1.14016 14.2637 1.32829 14.1852 1.52451 14.185H21.671C21.8672 14.1852 22.0554 14.2637 22.1941 14.4032C22.3329 14.5427 22.4109 14.7318 22.4111 14.9291V16.0856Z" fill="black"/>
<path d="M20.5075 7.51883L20.5059 7.51747L20.5016 7.51287C19.6152 6.63866 18.0495 6.8148 16.7801 7.93155C16.102 8.51127 15.6727 9.33765 15.5833 10.2349C15.5344 10.7492 15.6816 11.2629 15.9945 11.6696C16.1877 12.0619 16.4659 12.4043 16.8081 12.6709C17.1503 12.9375 17.5475 13.1213 17.9697 13.2085C18.1325 13.2393 18.2978 13.2549 18.4633 13.2548C19.1723 13.25 19.8559 12.985 20.3889 12.5085C21.0232 11.9323 21.4253 11.1369 21.5176 10.2761C21.5753 9.76789 21.5138 9.25294 21.3382 8.77361C21.1626 8.29427 20.8779 7.86423 20.5075 7.51883ZM16.3785 10.2905C16.4518 9.60917 16.7826 8.9837 17.3008 8.54669C17.7862 8.08648 18.4139 7.81317 19.0758 7.77383C19.3957 7.76095 19.7077 7.87656 19.9447 8.09576C19.9474 8.09847 19.9495 8.10146 19.9524 8.10444C20.3553 8.51607 20.2306 9.74067 19.466 10.6596C18.9367 11.2961 18.2692 11.6793 17.6841 11.6853H17.6705C17.4698 11.6838 17.272 11.637 17.0911 11.5484C16.9103 11.4597 16.7509 11.3314 16.6245 11.1726C16.4313 10.9232 16.3429 10.6061 16.3785 10.2905ZM19.8625 11.8964C19.6416 12.0955 19.3823 12.2452 19.1012 12.3361C18.8201 12.427 18.5235 12.4569 18.2304 12.424C18.9574 12.2188 19.6026 11.7853 20.0742 11.1853C20.3533 10.8482 20.5753 10.4661 20.7311 10.0547C20.7282 10.0989 20.7282 10.142 20.7234 10.187C20.6538 10.8456 20.3472 11.4546 19.8628 11.8964H19.8625Z" fill="black"/>
<path d="M17.9757 10.9341C17.8161 10.9338 17.6586 10.8989 17.514 10.8318C17.3695 10.7646 17.2415 10.6669 17.1389 10.5454C17.0518 10.4425 16.9862 10.3233 16.9459 10.1949C16.9055 10.0665 16.8913 9.93136 16.9041 9.79743C16.945 9.38026 17.1483 8.9955 17.4706 8.72521C18.0799 8.2029 18.8457 8.13569 19.2922 8.56523C19.6926 8.95064 19.6187 9.75932 19.1308 10.3313C18.9943 10.5067 18.8217 10.6511 18.6245 10.7548C18.4274 10.8586 18.2102 10.9194 17.9875 10.9331L17.9757 10.9341ZM18.5534 9.0359C18.3327 9.05173 18.1244 9.1432 17.9641 9.29467C17.7946 9.43382 17.6851 9.63205 17.6578 9.84884C17.6475 9.91886 17.6647 9.99014 17.7058 10.0479C17.7386 10.089 17.7801 10.1223 17.8275 10.1455C17.8748 10.1686 17.9267 10.181 17.9795 10.1818C18.0928 10.1667 18.202 10.1291 18.3005 10.0713C18.399 10.0134 18.4848 9.9365 18.5529 9.84508C18.6495 9.75052 18.7199 9.63266 18.757 9.50301C18.7941 9.37336 18.7968 9.23634 18.7648 9.10535C18.7058 9.05621 18.6302 9.03136 18.5534 9.0359Z" fill="black"/>
<path d="M6.04246 9.65194C6.0229 9.60577 6.00818 9.55757 5.99854 9.50818C6.00132 9.22904 5.91666 8.95642 5.75712 8.73077C5.59758 8.50512 5.37167 8.33848 5.11291 8.25558C5.07011 8.23054 5.03011 8.20074 4.99364 8.1667C4.82856 7.94407 4.60526 7.77459 4.34994 7.67813C4.23425 7.63976 4.11339 7.62052 3.99185 7.62111C3.8476 7.62425 3.70421 7.64483 3.56463 7.68241C3.50816 7.68911 3.45114 7.68911 3.39467 7.68241C3.25508 7.64484 3.1117 7.62426 2.96745 7.62111C2.84591 7.6205 2.72505 7.63975 2.60936 7.67813C2.35404 7.77459 2.13074 7.94407 1.96567 8.1667C1.9292 8.20068 1.8892 8.23039 1.84639 8.25531C1.58763 8.33833 1.36172 8.50503 1.20216 8.7307C1.04259 8.95637 0.957848 9.229 0.9605 9.50818C0.9511 9.55764 0.936369 9.60586 0.916582 9.65194C0.752083 9.87895 0.663208 10.1546 0.663208 10.4379C0.663208 10.7212 0.752083 10.9969 0.916582 11.2239C0.928276 11.2435 0.942569 11.2684 0.953224 11.2866C0.955822 11.3093 0.958421 11.3417 0.9605 11.3669C0.957848 11.6461 1.04259 11.9187 1.20216 12.1444C1.36172 12.37 1.58763 12.5367 1.84639 12.6198C1.88926 12.6447 1.92927 12.6745 1.96567 12.7086C2.13074 12.9313 2.35404 13.1007 2.60936 13.1972C2.72508 13.2355 2.84592 13.2547 2.96745 13.2542C3.11171 13.251 3.25509 13.2303 3.39467 13.1927C3.45115 13.1862 3.50815 13.1862 3.56463 13.1927C3.7042 13.2303 3.84759 13.251 3.99185 13.2542C4.11338 13.2547 4.23422 13.2354 4.34994 13.1972C4.60513 13.101 4.82842 12.9319 4.99364 12.7097C5.03 12.6756 5.06992 12.6458 5.11265 12.6208C5.37148 12.538 5.59747 12.3714 5.75707 12.1457C5.91666 11.9201 6.00134 11.6474 5.99854 11.3682C6.00814 11.3188 6.02287 11.2706 6.04246 11.2245C6.20728 10.9976 6.29635 10.7218 6.29635 10.4385C6.29635 10.1551 6.20728 9.87935 6.04246 9.65248V9.65194ZM5.26286 11.0349C5.19893 11.2381 5.24701 11.5021 5.12747 11.6713C5.00793 11.8405 4.74728 11.8761 4.58175 12.0003C4.41621 12.1245 4.30681 12.3678 4.10957 12.434C4.07155 12.4462 4.03192 12.4521 3.99211 12.4516C3.82917 12.4516 3.64908 12.3689 3.47991 12.3689C3.31074 12.3689 3.13065 12.4516 2.96771 12.4516C2.9279 12.4521 2.88827 12.4462 2.85025 12.434C2.65301 12.3678 2.54231 12.1234 2.37807 12.0003C2.21384 11.8771 1.95267 11.8421 1.83235 11.6713C1.71204 11.5005 1.76089 11.2381 1.69696 11.0349C1.63511 10.8387 1.44333 10.6553 1.44333 10.4379C1.44333 10.2206 1.63511 10.0364 1.69696 9.84095C1.76089 9.63775 1.71281 9.37353 1.83235 9.20434C1.95189 9.03514 2.21254 8.99981 2.37807 8.87532C2.54361 8.75084 2.65301 8.50776 2.85025 8.4419C2.88827 8.42972 2.9279 8.42375 2.96771 8.42423C3.13065 8.42423 3.31074 8.50669 3.47991 8.50669C3.64908 8.50669 3.82917 8.42423 3.99211 8.42423C4.03192 8.42375 4.07155 8.42972 4.10957 8.4419C4.30681 8.50776 4.41751 8.75244 4.58175 8.87559C4.74598 8.99874 5.00715 9.03354 5.12747 9.2046C5.24779 9.37567 5.19893 9.63775 5.26286 9.84095C5.32471 10.0372 5.51649 10.2206 5.51649 10.4379C5.51649 10.6553 5.32523 10.8387 5.26286 11.0349Z" fill="black"/>
<path d="M15.7399 5.96484C15.576 5.9648 15.4159 6.01334 15.2796 6.10434C15.1433 6.19533 15.0371 6.3247 14.9744 6.47606C14.9116 6.62743 14.8952 6.794 14.9271 6.95471C14.9591 7.11542 15.038 7.26305 15.1538 7.37893C15.2696 7.49481 15.4173 7.57373 15.578 7.60571C15.7387 7.6377 15.9052 7.62131 16.0566 7.55861C16.208 7.49592 16.3374 7.38974 16.4284 7.25351C16.5195 7.11727 16.5681 6.9571 16.5681 6.79325C16.5679 6.57364 16.4806 6.36308 16.3253 6.20778C16.17 6.05247 15.9595 5.9651 15.7399 5.96484ZM15.7399 7.13668C15.6719 7.13673 15.6054 7.1166 15.5489 7.07886C15.4923 7.04111 15.4482 6.98744 15.4222 6.92463C15.3962 6.86183 15.3893 6.79271 15.4026 6.72602C15.4158 6.65933 15.4486 6.59807 15.4966 6.54999C15.5447 6.50191 15.606 6.46918 15.6727 6.45592C15.7394 6.44267 15.8085 6.4495 15.8713 6.47554C15.9341 6.50158 15.9878 6.54567 16.0255 6.60222C16.0633 6.65877 16.0834 6.72525 16.0833 6.79325C16.0833 6.88433 16.0471 6.97168 15.9827 7.03609C15.9183 7.10049 15.831 7.13668 15.7399 7.13668Z" fill="black"/>
<path d="M16.8993 4.30859C16.7936 4.30876 16.6895 4.33409 16.5956 4.38248C16.4515 4.45688 16.3397 4.58151 16.2814 4.73278C16.223 4.88405 16.2221 5.05146 16.2789 5.20334C16.3356 5.35521 16.4461 5.48101 16.5894 5.55692C16.7327 5.63283 16.8988 5.65358 17.0563 5.61526C17.2139 5.57693 17.3519 5.48218 17.4443 5.34894C17.5367 5.2157 17.577 5.05321 17.5576 4.89223C17.5383 4.73125 17.4606 4.58295 17.3393 4.4754C17.218 4.36785 17.0614 4.3085 16.8993 4.30859ZM16.9956 5.15762C16.9587 5.17658 16.917 5.18418 16.8758 5.17945C16.8346 5.17473 16.7958 5.15788 16.7641 5.13106C16.7325 5.10424 16.7095 5.06864 16.6982 5.02876C16.6868 4.98888 16.6875 4.94652 16.7001 4.90704C16.7128 4.86756 16.7369 4.83272 16.7694 4.80694C16.8019 4.78117 16.8413 4.7656 16.8826 4.76222C16.924 4.75884 16.9654 4.76779 17.0016 4.78794C17.0379 4.8081 17.0673 4.83855 17.0863 4.87544C17.0989 4.89991 17.1066 4.92664 17.1088 4.95408C17.1111 4.98152 17.1079 5.00914 17.0995 5.03536C17.0911 5.06157 17.0776 5.08587 17.0597 5.10685C17.0419 5.12783 17.0201 5.14508 16.9956 5.15762Z" fill="black"/>
<path d="M14.2485 8.2832C14.1039 8.28327 13.9634 8.33058 13.8482 8.41794C13.7331 8.5053 13.6496 8.62791 13.6106 8.76709C13.5716 8.90627 13.5792 9.05438 13.6322 9.18886C13.6852 9.32334 13.7807 9.43681 13.9041 9.51198C14.0276 9.58714 14.1722 9.61989 14.316 9.60523C14.4598 9.59056 14.5949 9.52929 14.7006 9.43075C14.8063 9.3322 14.877 9.20179 14.9017 9.05939C14.9265 8.91698 14.904 8.77039 14.8377 8.64195C14.7817 8.53393 14.6972 8.44335 14.5933 8.38009C14.4894 8.31683 14.3701 8.28331 14.2485 8.2832ZM14.3265 9.09742C14.2966 9.11255 14.263 9.1185 14.2298 9.11453C14.1966 9.11056 14.1653 9.09684 14.1399 9.0751C14.1145 9.05337 14.0961 9.02459 14.087 8.9924C14.0779 8.96022 14.0786 8.92606 14.0889 8.89425C14.0992 8.86244 14.1187 8.8344 14.1449 8.81367C14.1712 8.79293 14.203 8.78044 14.2363 8.77776C14.2696 8.77507 14.303 8.78233 14.3322 8.7986C14.3615 8.81488 14.3852 8.83944 14.4005 8.86919C14.4106 8.88903 14.4168 8.91068 14.4185 8.9329C14.4203 8.95511 14.4177 8.97746 14.4108 8.99865C14.4039 9.01985 14.3929 9.03949 14.3785 9.05643C14.364 9.07338 14.3463 9.08731 14.3265 9.09742Z" fill="black"/>
<path d="M19.7889 5.41793C19.7007 5.24777 19.5563 5.11345 19.3802 5.03786C19.2041 4.96227 19.0073 4.95008 18.8232 5.00337C18.6391 5.05666 18.4792 5.17213 18.3708 5.3301C18.2623 5.48808 18.2119 5.67879 18.2282 5.86974C18.2446 6.06069 18.3266 6.24007 18.4604 6.37732C18.5941 6.51456 18.7713 6.60118 18.9617 6.62241C19.1522 6.64364 19.3441 6.59818 19.5048 6.49376C19.6655 6.38934 19.785 6.23244 19.843 6.04977C19.876 5.94609 19.8883 5.83689 19.879 5.72845C19.8697 5.62001 19.8391 5.51448 19.7889 5.41793ZM19.1847 6.05329C19.1173 6.08572 19.0398 6.09057 18.9688 6.0668C18.8978 6.04304 18.8389 5.99253 18.8045 5.92601C18.7702 5.85948 18.7631 5.78219 18.7849 5.71054C18.8066 5.63889 18.8554 5.57854 18.9209 5.54229C18.9545 5.52367 18.9916 5.51199 19.0298 5.50794C19.0681 5.50389 19.1068 5.50756 19.1436 5.51872C19.1804 5.52988 19.2146 5.54832 19.2441 5.57293C19.2737 5.59754 19.298 5.62784 19.3157 5.66202C19.3333 5.6962 19.3439 5.73358 19.3469 5.77193C19.3499 5.81029 19.3451 5.84885 19.3329 5.88533C19.3207 5.92181 19.3013 5.95547 19.2758 5.98432C19.2504 6.01317 19.2194 6.03662 19.1847 6.05329Z" fill="black"/>
<path d="M3.2948 11.9295C3.25523 11.9295 3.21589 11.9237 3.17809 11.9123C2.95592 11.8423 2.75027 11.7299 2.57318 11.5815C2.39608 11.433 2.25109 11.2517 2.14668 11.048C2.05464 10.8682 2.00148 10.6718 1.99053 10.4711C1.97957 10.2704 2.01105 10.0697 2.083 9.88138C2.14954 9.69832 2.25385 9.53052 2.3895 9.38836C2.52515 9.2462 2.68924 9.1327 2.87163 9.05487C3.03238 8.98527 3.20608 8.94866 3.38195 8.9473C3.55781 8.94595 3.73208 8.97989 3.89394 9.04701C4.16605 9.15711 4.38756 9.36041 4.5168 9.61868C4.64605 9.87696 4.67412 10.1724 4.59575 10.4495C4.52495 10.6811 4.36514 10.877 4.14973 10.9963C3.93431 11.1157 3.67997 11.1492 3.43984 11.0898C3.31833 11.055 3.2073 10.9919 3.11629 10.906C3.02529 10.8201 2.95703 10.7139 2.91738 10.5965C2.88007 10.4872 2.87139 10.3704 2.89214 10.2569C2.91288 10.1435 2.9624 10.0369 3.03617 9.94681C3.09643 9.87175 3.1834 9.8215 3.27983 9.80603C3.37626 9.79056 3.47514 9.81098 3.55687 9.86326C3.6386 9.91554 3.69723 9.99586 3.72114 10.0883C3.74506 10.1808 3.73251 10.2786 3.68599 10.3625C3.72641 10.3555 3.76391 10.3373 3.79404 10.3101C3.82418 10.2829 3.84568 10.2478 3.85599 10.209C3.92383 10.0107 3.71355 9.79921 3.5867 9.74621C3.52187 9.72029 3.45229 9.70759 3.38224 9.7089C3.31219 9.71021 3.24315 9.72549 3.17939 9.75381C3.09429 9.79126 3.01795 9.84533 2.9551 9.91268C2.89224 9.98002 2.8442 10.0592 2.81392 10.1454C2.77817 10.2367 2.76258 10.3343 2.76818 10.4319C2.77378 10.5295 2.80044 10.6248 2.84642 10.7117C2.96284 10.9361 3.1658 11.1063 3.41073 11.1849C3.50055 11.2114 3.5776 11.2685 3.62771 11.3459C3.67783 11.4233 3.69766 11.5157 3.68357 11.6062C3.66948 11.6967 3.62241 11.7793 3.551 11.8386C3.47959 11.898 3.38862 11.9303 3.2948 11.9295Z" fill="black"/>
</svg>
