<svg width="9" height="16" viewBox="0 0 9 16" fill="none" xmlns="http://www.w3.org/2000/svg">
<path d="M7.5 14.25L1.25 8L7.5 1.75" stroke="#1D2A40" stroke-width="2" stroke-linecap="round" stroke-linejoin="round"/>
</svg>
