<svg width="20" height="20" viewBox="0 0 27 27" fill="none" xmlns="http://www.w3.org/2000/svg">
<path d="M7.02762 11.1912C5.91843 10.8951 5.7888 9.20356 6.52643 8.52182C6.7178 8.34369 6.97187 8.24872 7.23303 8.25771C8.55676 8.26136 9.88079 8.26136 11.2051 8.25771C11.3619 8.25592 11.516 8.21742 11.6552 8.1453C12.7598 7.54855 13.859 6.94448 14.959 6.33859C15.2945 6.1541 15.6719 6.05965 16.0545 6.06443C18.4744 6.06808 20.8939 6.06808 23.3131 6.06443H23.6025C23.6025 5.94562 23.6025 5.84784 23.6025 5.75097C23.6053 5.47041 23.7376 5.33333 24.0243 5.33333C24.9524 5.33333 25.8809 5.33333 26.8096 5.33333C27.12 5.33333 27.2496 5.46676 27.2496 5.78204C27.2496 7.14553 27.2496 8.50872 27.2496 9.8716C27.2496 10.0471 27.2496 10.2216 27.2496 10.3971C27.2442 10.6712 27.1118 10.8138 26.847 10.8147C25.8958 10.8184 24.9445 10.8184 23.9933 10.8147C23.7395 10.8147 23.6053 10.6703 23.5989 10.4126C23.5934 10.1924 23.5989 9.97213 23.5989 9.73635H22.8768C22.6942 10.8284 22.0387 11.4416 20.9122 11.5641C21.1465 12.3628 21.3799 13.1576 21.6124 13.9484C21.8762 14.8458 22.1464 15.7405 22.4002 16.6406C22.4641 16.8672 22.497 17.1015 22.4979 17.337C22.504 20.7183 22.504 24.0996 22.4979 27.4809C22.4979 27.8885 22.3884 28 21.9885 28H5.85361C5.43824 28 5.33325 27.8931 5.33325 27.47C5.33325 24.0966 5.33325 20.7229 5.33325 17.3489C5.33508 17.0835 5.37348 16.8196 5.44737 16.5648C5.95495 14.812 6.47531 13.0637 6.99111 11.3137C7.00571 11.2799 7.01393 11.2442 7.02762 11.1912ZM19.6021 11.9223C19.4862 12.0137 19.4196 12.0585 19.3575 12.1051C18.8408 12.5054 18.335 12.9212 17.8055 13.3041C17.5833 13.4709 17.3212 13.5763 17.0454 13.6097C16.7697 13.643 16.49 13.6033 16.2345 13.4943C15.979 13.3853 15.7566 13.211 15.5896 12.9888C15.4226 12.7667 15.3169 12.5044 15.2831 12.2285C15.2411 11.8912 15.3434 11.5367 15.3744 11.1903H7.79721C7.77074 11.2707 7.74153 11.3484 7.7187 11.4279C7.19651 13.2136 6.67493 14.9999 6.15396 16.7868C6.10072 16.9688 6.07306 17.1574 6.0718 17.347C6.06572 20.5675 6.06267 23.7883 6.06267 27.0094V27.2561H18.1132V26.971C18.1132 23.7566 18.1132 20.5431 18.1132 17.3306C18.1153 17.0802 18.1512 16.8311 18.22 16.5904C18.4893 15.6399 18.7778 14.6941 19.0571 13.7473C19.2397 13.1588 19.4113 12.5693 19.6021 11.9187V11.9223ZM13.0565 8.22115L13.073 8.26228H13.324C15.0056 8.26228 16.6872 8.26228 18.3688 8.26228C18.4888 8.26059 18.607 8.29222 18.7102 8.35367C18.9138 8.49257 18.8928 8.73749 18.67 8.95865C17.8728 9.75493 17.0764 10.5509 16.2809 11.3466C16.0628 11.5641 15.945 11.8191 15.9934 12.1279C16.0137 12.2818 16.0747 12.4275 16.1699 12.5499C16.2652 12.6724 16.3914 12.7672 16.5355 12.8245C16.6796 12.8819 16.8364 12.8997 16.9896 12.8762C17.1429 12.8528 17.2871 12.7888 17.4075 12.6909C17.968 12.2714 18.5404 11.862 19.0599 11.395C19.5556 10.9491 20.0869 10.7151 20.7524 10.8175C20.7904 10.8202 20.8285 10.8202 20.8665 10.8175C21.1938 10.8236 21.5104 10.7007 21.7478 10.4751C21.9852 10.2496 22.1245 9.93955 22.1355 9.61206C22.162 9.20174 22.3811 8.99337 22.7946 8.98972C23.0575 8.98972 23.3214 8.98972 23.5797 8.98972V6.79552H23.2885C21.0665 6.79552 18.8435 6.81288 16.6242 6.78547C15.9605 6.77724 15.3726 6.8997 14.8075 7.25063C14.2424 7.60155 13.6399 7.89765 13.0565 8.2175V8.22115ZM20.337 12.2138H20.2886C20.2768 12.2467 20.2631 12.2796 20.253 12.3135C19.8002 13.8445 19.3483 15.3755 18.8974 16.9066C18.8655 17.0239 18.8498 17.145 18.8508 17.2666C18.8508 20.3591 18.8508 23.4514 18.8508 26.5433C18.8508 26.5981 18.8618 26.653 18.8718 26.7517C19.2023 26.4163 19.4962 26.1119 19.8012 25.8104C19.8508 25.7654 19.8898 25.7099 19.9152 25.6479C19.9407 25.586 19.9519 25.519 19.9481 25.4521C19.9445 22.9542 19.9445 20.4563 19.9481 17.9584C19.9435 17.8825 19.9454 17.8064 19.9536 17.7309C19.9676 17.6464 20.0108 17.5696 20.0756 17.5137C20.1404 17.4579 20.2228 17.4266 20.3083 17.4253C20.3938 17.424 20.477 17.4527 20.5435 17.5066C20.61 17.5604 20.6555 17.6359 20.6721 17.7199C20.6811 17.7957 20.6832 17.8722 20.6785 17.9484C20.6785 20.1947 20.6785 22.4412 20.6785 24.6881C20.6785 25.008 20.5936 25.3644 20.7086 25.6376C20.8236 25.9109 21.1377 26.1174 21.3668 26.3496C21.49 26.4748 21.6169 26.5945 21.774 26.7471V26.4382C21.774 23.7121 21.7603 20.9851 21.7822 18.2591C21.7886 17.4649 21.711 16.7 21.4435 15.9516C21.3385 15.6591 21.2655 15.3548 21.1769 15.056C20.8957 14.1056 20.6158 13.157 20.337 12.2102V12.2138ZM17.5937 9.0016C17.5125 8.9952 17.4842 8.99063 17.4568 8.99063C14.0571 8.99063 10.658 8.99063 7.25951 8.99063C7.18721 8.98629 7.11536 9.00465 7.05399 9.04315C6.99262 9.08165 6.94479 9.13837 6.91716 9.20539C6.8353 9.36517 6.7926 9.54216 6.7926 9.72173C6.7926 9.90129 6.8353 10.0783 6.91716 10.2381C6.94732 10.3084 6.99879 10.3675 7.06431 10.4071C7.12982 10.4466 7.20609 10.4645 7.28233 10.4583C10.1818 10.4534 13.0842 10.451 15.9897 10.451C16.0702 10.4521 16.1486 10.4253 16.2116 10.3751C16.6635 9.93283 17.109 9.48503 17.5937 9.0016ZM26.5038 10.0772V6.08362H24.3402V10.0772H26.5038ZM21.1824 27.2579L20.3224 26.3962L19.4524 27.2579H21.1824Z" fill="#1D2A40"/>
<path d="M14.4338 20.5445L14.3662 20.4257L14.756 20.2082L14.8218 20.3325L14.4338 20.5445Z" fill="#1D2A40"/>
<path d="M12.926 20.6489C13.1357 20.6378 13.346 20.6423 13.555 20.6626C13.6514 20.6852 13.7373 20.7396 13.799 20.817C13.8607 20.8945 13.8946 20.9904 13.8952 21.0895C13.8958 21.1885 13.8632 21.2849 13.8025 21.3631C13.7418 21.4413 13.6565 21.4968 13.5605 21.5207L13.4783 21.5417C13.6116 21.719 13.7522 21.9018 13.8782 22.0727H13.6856L13.6189 21.9813L13.1962 21.4174C13.2707 21.4235 13.3455 21.4235 13.4199 21.4174C13.4942 21.4078 13.5655 21.3822 13.629 21.3425C13.6808 21.3079 13.7197 21.2572 13.7397 21.1982C13.7596 21.1392 13.7596 21.0752 13.7394 21.0162C13.7239 20.9543 13.6888 20.8991 13.6395 20.8586C13.5902 20.8181 13.5292 20.7946 13.4656 20.7914C13.3357 20.7845 13.2056 20.7845 13.0757 20.7914V22.08H12.926V20.6489Z" fill="#1D2A40"/>
<path d="M11.3907 22.0708H11.2245C11.1807 21.9703 11.1077 21.7546 11.0575 21.6568C11.0474 21.6364 11.0361 21.6166 11.0237 21.5974C10.8411 21.5974 10.5508 21.5974 10.371 21.5974C10.3599 21.6161 10.3504 21.6357 10.3427 21.6559C10.3025 21.7555 10.2085 21.9721 10.1665 22.0708H10.0085L10.2012 21.6139C10.3326 21.3041 10.465 20.9376 10.5946 20.6269H10.8019L11.3907 22.0708ZM10.7024 20.8152L10.4285 21.4549H10.9708L10.7024 20.8152Z" fill="#1D2A40"/>
<path d="M12.6968 21.0161C12.6512 21.0161 12.5425 21.0161 12.5425 21.0161C12.5425 21.0161 12.5197 20.9914 12.4996 20.964C12.2477 20.6286 11.71 20.7018 11.5183 21.0819C11.4467 21.2141 11.428 21.3685 11.4659 21.514C11.5039 21.6594 11.5957 21.7849 11.7227 21.8651C11.8391 21.9483 11.9827 21.9839 12.1243 21.9647C12.266 21.9455 12.395 21.873 12.485 21.7618C12.5088 21.7344 12.5298 21.7079 12.5298 21.7079C12.5847 21.7024 12.6398 21.7 12.695 21.7006C12.6311 21.9035 12.3143 22.1493 11.9437 22.1018C11.7672 22.0802 11.6042 21.996 11.4843 21.8646C11.3643 21.7332 11.2953 21.5631 11.2897 21.3852C11.2841 21.2073 11.3422 21.0332 11.4536 20.8944C11.565 20.7557 11.7223 20.6614 11.8971 20.6286C12.2303 20.5665 12.6028 20.7438 12.6968 21.0161Z" fill="#1D2A40"/>
<path d="M9.15853 21.6723H9.30642C9.31373 21.6997 9.30642 21.7244 9.31738 21.7491C9.32919 21.8141 9.36486 21.8724 9.41739 21.9125C9.46992 21.9525 9.53551 21.9715 9.6013 21.9656C9.66486 21.9671 9.72695 21.9464 9.77692 21.907C9.82689 21.8677 9.86162 21.8122 9.87517 21.75C9.89272 21.6858 9.88487 21.6173 9.85324 21.5587C9.82161 21.5001 9.76865 21.4561 9.70537 21.4356C9.61408 21.3972 9.52279 21.3716 9.4251 21.3369C9.34838 21.3143 9.28218 21.2651 9.23836 21.1982C9.19454 21.1312 9.17595 21.0508 9.18592 20.9714C9.19232 20.887 9.22656 20.8072 9.28325 20.7445C9.33995 20.6818 9.41586 20.6398 9.49905 20.625C9.75832 20.583 9.97285 20.7365 9.98563 20.9768C9.98668 20.9881 9.98668 20.9994 9.98563 21.0107H9.84139C9.84139 20.9905 9.83044 20.9686 9.82496 20.9458C9.81743 20.9132 9.80338 20.8824 9.78365 20.8554C9.76392 20.8284 9.73893 20.8056 9.71017 20.7885C9.68142 20.7714 9.6495 20.7604 9.61635 20.756C9.5832 20.7516 9.54951 20.754 9.51731 20.763C9.48635 20.7696 9.45706 20.7824 9.43121 20.8007C9.40536 20.819 9.38349 20.8424 9.36693 20.8694C9.35037 20.8964 9.33946 20.9265 9.33486 20.9578C9.33027 20.9892 9.33209 21.0211 9.3402 21.0518C9.36112 21.1098 9.40275 21.1579 9.45706 21.187C9.55448 21.2301 9.65413 21.2679 9.75558 21.3003C9.83797 21.3316 9.90832 21.3882 9.95653 21.462C10.0047 21.5358 10.0283 21.6231 10.0238 21.7112C10.0194 21.7992 9.9871 21.8836 9.93168 21.9522C9.87626 22.0207 9.80053 22.0699 9.71541 22.0927C9.65031 22.1141 9.58098 22.1195 9.51336 22.1083C9.44574 22.0971 9.38184 22.0696 9.32712 22.0283C9.27239 21.987 9.22848 21.933 9.19912 21.871C9.16976 21.809 9.15583 21.7408 9.15853 21.6723Z" fill="#1D2A40"/>
<path d="M14.2424 21.9448C14.3994 21.9448 14.6322 21.9448 14.7901 21.9448H14.8814V22.0737H14.1018V20.6371H14.8796V20.765H14.246V21.285H14.8641V21.4175H14.2451L14.2424 21.9448Z" fill="#1D2A40"/>
<path d="M8.61891 22.5141H8.3989L7.79729 23.9498L7.79272 23.9608H8.1022L8.25557 23.5906H8.75859L8.90922 23.9562V23.9608H9.21961L8.61891 22.5141ZM8.66273 23.3293H8.35326L8.50663 22.9144L8.66273 23.3293Z" fill="#1D2A40"/>
<path d="M10.1763 23.3108C10.2216 23.2665 10.2568 23.2129 10.2795 23.1536C10.3036 23.0931 10.3163 23.0287 10.3169 22.9636C10.3188 22.8945 10.3042 22.826 10.2743 22.7637C10.2445 22.7014 10.2003 22.6471 10.1453 22.6053C10.041 22.5355 9.91609 22.5033 9.79108 22.5139H9.34375V23.9652H9.6231V23.4278L9.99466 23.9642H10.3361L9.94628 23.4278C10.0315 23.4087 10.1106 23.3685 10.1763 23.3108ZM10.0357 22.9828C10.0375 23.0129 10.0322 23.043 10.0201 23.0706C10.0081 23.0982 9.98964 23.1226 9.96636 23.1418C9.91351 23.1802 9.84902 23.1993 9.78378 23.1957H9.6231V22.7735H9.78743C9.85095 22.7713 9.91335 22.7906 9.96453 22.8283C9.98802 22.8463 10.0068 22.8698 10.0192 22.8967C10.0316 22.9236 10.0373 22.9532 10.0357 22.9828Z" fill="#1D2A40"/>
<path d="M11.2254 23.5852L10.8474 22.5096H10.4658V23.9608H10.747V22.9135L11.1039 23.9553L11.1058 23.9608H11.3413L11.7001 22.908V23.9608H11.9813V22.5096H11.5997L11.2254 23.5852Z" fill="#1D2A40"/>
<path d="M12.9185 22.5141H12.7004L12.1015 23.9544L12.0969 23.9653H12.4064L12.5598 23.5952H13.0628L13.2134 23.9608V23.9653H13.5229L12.9204 22.5141H12.9185ZM12.9615 23.3293H12.6547L12.8081 22.9144L12.9615 23.3293Z" fill="#1D2A40"/>
<path d="M14.5564 23.5377L13.974 22.5141L13.9722 22.5096H13.6572V23.9608H13.9384V22.9327L14.5263 23.9571L14.5281 23.9608H14.8376V22.5096H14.5564V23.5377Z" fill="#1D2A40"/>
<path d="M16.1816 22.9299C16.1435 22.8334 16.0831 22.7473 16.0054 22.6786C15.8776 22.5662 15.6777 22.5096 15.4111 22.5096H15.0779V23.9608H15.4166C15.582 23.9705 15.7473 23.9391 15.8977 23.8694C16.0064 23.8086 16.0947 23.7171 16.1515 23.6062C16.212 23.4939 16.2434 23.3682 16.2428 23.2406C16.2435 23.134 16.2227 23.0283 16.1816 22.9299ZM15.9634 23.2388C15.9635 23.3182 15.9441 23.3963 15.9068 23.4664C15.8721 23.5341 15.8185 23.5903 15.7525 23.6281C15.645 23.6794 15.5264 23.703 15.4074 23.6967H15.3591V22.7737C15.4266 22.7737 15.4814 22.7737 15.5206 22.7737C15.5706 22.7793 15.6198 22.79 15.6676 22.8056C15.7213 22.8225 15.7707 22.8505 15.8128 22.8879C15.8619 22.9303 15.9001 22.9839 15.9242 23.0442C15.9502 23.1057 15.9636 23.1719 15.9634 23.2388Z" fill="#1D2A40"/>
<path d="M12.8479 19.6517L12.9948 20.031L12.343 19.8738C12.3975 19.8627 12.4511 19.8481 12.5037 19.83C12.6266 19.7879 12.7426 19.7279 12.8479 19.6517Z" fill="#1D2A40"/>
<path d="M12.5514 18.0361C12.6171 18.0359 12.6813 18.0552 12.736 18.0916C12.7908 18.128 12.8335 18.1797 12.8588 18.2404C12.8842 18.3011 12.891 18.3679 12.8784 18.4324C12.8659 18.497 12.8345 18.5563 12.7882 18.603C12.742 18.6497 12.6829 18.6816 12.6186 18.6947C12.5542 18.7078 12.4874 18.7016 12.4266 18.6767C12.3658 18.6518 12.3137 18.6095 12.2769 18.555C12.2402 18.5005 12.2203 18.4363 12.22 18.3706C12.2196 18.3268 12.2279 18.2834 12.2444 18.2428C12.2609 18.2022 12.2853 18.1653 12.3161 18.1342C12.3469 18.1031 12.3835 18.0785 12.4239 18.0616C12.4643 18.0448 12.5076 18.0361 12.5514 18.0361ZM12.6801 18.4492C12.6984 18.4611 12.7111 18.4537 12.7047 18.4282C12.6975 18.3885 12.6763 18.3527 12.645 18.3274C12.6137 18.3021 12.5743 18.2889 12.534 18.2902C12.4529 18.2954 12.3754 18.3257 12.3122 18.377C12.2802 18.4062 12.2839 18.43 12.3222 18.451C12.3425 18.4598 12.3644 18.4644 12.3866 18.4644C12.4087 18.4644 12.4306 18.4598 12.451 18.451C12.4862 18.4326 12.5252 18.4225 12.5649 18.4215C12.6046 18.4206 12.644 18.4288 12.6801 18.4455V18.4492Z" fill="#1D2A40"/>
<path d="M11.884 18.3651C11.8796 18.4504 11.8425 18.5308 11.7806 18.5896C11.7187 18.6484 11.6366 18.6812 11.5513 18.6812C11.4659 18.6812 11.3838 18.6484 11.3219 18.5896C11.26 18.5308 11.223 18.4504 11.2185 18.3651C11.2213 18.278 11.2574 18.1952 11.3195 18.134C11.3815 18.0727 11.4646 18.0377 11.5517 18.0361C11.6392 18.0361 11.7232 18.0706 11.7854 18.1322C11.8476 18.1938 11.8831 18.2775 11.884 18.3651ZM11.6622 18.5296C11.6827 18.5303 11.703 18.5267 11.722 18.519C11.741 18.5113 11.7582 18.4997 11.7725 18.485C11.7868 18.4703 11.7978 18.4528 11.8049 18.4335C11.812 18.4143 11.815 18.3938 11.8137 18.3733C11.8143 18.353 11.8108 18.3328 11.8034 18.3139C11.796 18.295 11.7848 18.2778 11.7706 18.2634C11.7563 18.2489 11.7393 18.2376 11.7205 18.2299C11.7017 18.2223 11.6816 18.2185 11.6613 18.2189C11.6218 18.2219 11.5849 18.2397 11.5581 18.2688C11.5312 18.2978 11.5162 18.336 11.5162 18.3756C11.5162 18.4152 11.5312 18.4534 11.5581 18.4824C11.5849 18.5115 11.6218 18.5293 11.6613 18.5323L11.6622 18.5296Z" fill="#1D2A40"/>
<path d="M11.6544 19.83C11.7075 19.8483 11.7617 19.863 11.8169 19.8738L11.165 20.031L11.312 19.6517C11.4162 19.7272 11.531 19.787 11.6525 19.829L11.6544 19.83Z" fill="#1D2A40"/>
<path d="M12.0878 17.4037C12.0878 17.4037 12.7999 17.3708 13.0354 17.7226C13.0692 17.7107 13.1267 17.6669 13.1432 17.4987C13.1545 17.4385 13.157 17.3769 13.1505 17.3159C13.1238 17.1891 13.0658 17.0709 12.9818 16.9722C12.8977 16.8736 12.7903 16.7976 12.6694 16.7512C12.4163 16.6545 12.1416 16.6292 11.8751 16.6781C11.8131 16.6934 11.7492 16.7002 11.6852 16.6982C11.6753 16.6986 11.6654 16.6967 11.6564 16.6925C11.6473 16.6884 11.6394 16.6822 11.6332 16.6744C11.6061 16.6369 11.5695 16.6073 11.5273 16.5885C11.4944 16.573 11.4725 16.5766 11.4579 16.6004C11.4534 16.6066 11.4504 16.6137 11.449 16.6212C11.4475 16.6288 11.4478 16.6365 11.4497 16.6439C11.4516 16.6514 11.4552 16.6583 11.4601 16.6642C11.465 16.6701 11.4711 16.6748 11.478 16.6781C11.4988 16.6914 11.5176 16.7077 11.5337 16.7265C11.5419 16.7365 11.5474 16.7439 11.5282 16.7512C11.4835 16.7696 11.4415 16.7939 11.4032 16.8234C11.068 17.0619 10.7778 17.358 10.5459 17.6979C10.5225 17.7295 10.5026 17.7635 10.4866 17.7994C10.4776 17.817 10.4726 17.8364 10.472 17.8562C10.4714 17.8759 10.4751 17.8956 10.483 17.9138C10.4908 17.9319 10.5026 17.9481 10.5174 17.9612C10.5322 17.9743 10.5498 17.9839 10.5687 17.9895L10.6053 18.0013C10.6678 18.0164 10.7328 18.0182 10.7961 18.0068H10.8043H10.8143L10.9129 17.9867H10.9184L10.9513 17.9803C10.9513 17.9803 11.0836 17.4512 12.0878 17.4037ZM13.1277 17.5691C13.1241 17.5873 13.1195 17.6053 13.114 17.623C13.1186 17.6052 13.1222 17.5872 13.1249 17.5691H13.1277Z" fill="#1D2A40"/>
<path d="M13.0521 17.8981C13.0018 17.8283 12.9442 17.764 12.8805 17.7062C12.655 17.5234 12.3327 17.5015 12.173 17.5042C12.068 17.5042 11.952 17.517 11.8261 17.5316C11.3915 17.6011 11.208 17.7793 11.1742 17.8149C11.0484 17.9627 10.9605 18.139 10.9182 18.3285C10.8758 18.518 10.8803 18.7149 10.9312 18.9023C10.9821 19.0897 11.0779 19.2618 11.2103 19.4037C11.3427 19.5456 11.5077 19.653 11.691 19.7167L11.9055 19.7724C11.9641 19.781 12.0233 19.7856 12.0826 19.7861C12.1394 19.786 12.1962 19.7818 12.2524 19.7733L12.4697 19.7203C12.6454 19.6608 12.8048 19.5608 12.935 19.4285C13.0651 19.2961 13.1625 19.1351 13.2192 18.9582C13.2759 18.7814 13.2905 18.5937 13.2616 18.4102C13.2327 18.2267 13.1613 18.0526 13.053 17.9017L13.0521 17.8981ZM12.2707 17.697C12.2707 17.6751 12.2789 17.6678 12.2999 17.6678H12.4824C12.5418 17.6678 12.602 17.6678 12.665 17.6678C12.6888 17.6678 12.6997 17.676 12.6961 17.7007V17.7217C12.6961 17.7464 12.6879 17.7519 12.6659 17.7519H12.3008C12.278 17.7519 12.2688 17.7436 12.2707 17.7208C12.272 17.7129 12.272 17.7049 12.2707 17.697ZM11.5002 17.8432C11.5002 17.8277 11.5065 17.8222 11.523 17.8222H11.8197C11.8379 17.8222 11.8416 17.8295 11.8416 17.846C11.8416 17.9154 11.848 17.9026 11.7877 17.9036H11.6736C11.6261 17.9036 11.5823 17.9036 11.5312 17.9036C11.5084 17.9036 11.4974 17.8972 11.5002 17.8734C11.501 17.8634 11.501 17.8533 11.5002 17.8432ZM12.8485 19.1227L12.906 19.1035C12.8768 19.1574 12.8631 19.1674 12.7499 19.2296L12.8248 19.2104C12.7947 19.2661 12.7216 19.3018 12.602 19.3155C12.6112 19.3155 12.7061 19.3073 12.7152 19.3091L12.624 19.3383C12.512 19.3685 12.3938 19.3657 12.2834 19.3301C12.23 19.3112 12.1814 19.2807 12.1411 19.2407C12.1008 19.2007 12.0699 19.1523 12.0506 19.0989C12.0312 19.1522 12.0002 19.2005 11.96 19.2405C11.9197 19.2804 11.8712 19.311 11.8178 19.3301C11.7075 19.3657 11.5892 19.3685 11.4773 19.3383L11.386 19.3091C11.3952 19.3091 11.4901 19.3173 11.4992 19.3155C11.3796 19.3 11.3057 19.2661 11.2765 19.2104L11.3577 19.2241C11.2445 19.162 11.2308 19.1519 11.2016 19.098L11.2591 19.1172C11.2065 19.0715 11.1716 19.0087 11.1605 18.9399C11.1843 18.9655 11.198 18.981 11.2135 18.9947C11.229 19.0084 11.2436 19.0194 11.2582 19.0322C11.2067 18.9694 11.175 18.8928 11.1669 18.8119L11.1998 18.8576C11.2247 18.896 11.2578 18.9284 11.2966 18.9525C11.3355 18.9766 11.3791 18.9919 11.4246 18.9972C11.47 19.0025 11.516 18.9978 11.5593 18.9833C11.6027 18.9688 11.6423 18.9449 11.6754 18.9134L11.7247 18.865C11.7683 18.8134 11.8301 18.7806 11.8973 18.7736C11.9275 18.7726 11.9575 18.7781 11.9854 18.7898C12.0133 18.8015 12.0383 18.819 12.0589 18.8412C12.0793 18.8191 12.1042 18.8016 12.1319 18.79C12.1596 18.7783 12.1895 18.7727 12.2195 18.7736C12.2869 18.7806 12.349 18.8133 12.393 18.865L12.4423 18.9134C12.4752 18.9435 12.5143 18.9662 12.5568 18.9799C12.5992 18.9936 12.6442 18.998 12.6885 18.9928C12.7328 18.9876 12.7755 18.973 12.8137 18.9498C12.8519 18.9266 12.8846 18.8955 12.9097 18.8586L12.9426 18.8129C12.9348 18.8938 12.903 18.9705 12.8513 19.0331C12.8668 19.0203 12.8832 19.0093 12.8969 18.9956C12.9106 18.9819 12.9261 18.9664 12.9499 18.9408C12.9385 19.0107 12.9026 19.0742 12.8485 19.1199V19.1227ZM11.6088 18.9499C11.6088 18.9499 11.6106 18.9499 11.6088 18.9499V18.9499ZM12.5747 18.7745C12.4749 18.7798 12.3766 18.7485 12.2982 18.6864C12.2199 18.6243 12.1669 18.5357 12.1492 18.4373C12.1384 18.3802 12.1409 18.3214 12.1565 18.2655C12.1648 18.2408 12.1565 18.2326 12.1365 18.2252C12.0852 18.206 12.0288 18.206 11.9776 18.2252C11.9502 18.2344 11.9438 18.2481 11.9502 18.2773C11.9725 18.3774 11.9563 18.4822 11.9048 18.5708C11.8534 18.6594 11.7704 18.7254 11.6726 18.7555C11.5747 18.7857 11.4691 18.7778 11.3767 18.7335C11.2844 18.6891 11.2121 18.6116 11.1744 18.5163C11.1366 18.4211 11.1361 18.315 11.1729 18.2194C11.2097 18.1237 11.2812 18.0455 11.3731 18.0002C11.4649 17.955 11.5705 17.9461 11.6687 17.9752C11.7668 18.0044 11.8504 18.0695 11.9027 18.1576C11.9183 18.1841 11.9292 18.1914 11.9593 18.1786C11.9894 18.166 12.0217 18.1594 12.0543 18.1594C12.0869 18.1594 12.1192 18.166 12.1492 18.1786C12.1757 18.1896 12.1876 18.185 12.2031 18.1604C12.24 18.0975 12.2931 18.0457 12.3568 18.0105C12.4205 17.9752 12.4926 17.9577 12.5654 17.9598C12.6381 17.962 12.709 17.9837 12.7706 18.0227C12.8321 18.0616 12.882 18.1165 12.9152 18.1814C12.9454 18.2375 12.9611 18.3004 12.9608 18.3641C12.9614 18.4692 12.9217 18.5705 12.8498 18.647C12.778 18.7236 12.6794 18.7695 12.5747 18.7754V18.7745Z" fill="#1D2A40"/>
</svg>
