<svg width="18" height="18" viewBox="0 0 18 18" fill="none" xmlns="http://www.w3.org/2000/svg">
<path d="M13.1422 13.7047C12.4342 14.4127 11.5322 14.8949 10.5501 15.0902C9.56811 15.2856 8.55021 15.1853 7.62516 14.8021C6.70011 14.419 5.90946 13.7701 5.35318 12.9376C4.79691 12.1051 4.5 11.1263 4.5 10.125V7.875C4.5 6.87373 4.79691 5.89495 5.35318 5.06243C5.90946 4.2299 6.70011 3.58103 7.62516 3.19786C8.55021 2.81469 9.56811 2.71444 10.5501 2.90978C11.5322 3.10511 12.4342 3.58727 13.1422 4.29527" stroke="#000000" stroke-width="1.5" stroke-linecap="round" stroke-linejoin="round"/>
<path d="M2.8125 7.875H9.5625" stroke="#000000" stroke-width="1.5" stroke-linecap="round" stroke-linejoin="round"/>
<path d="M2.8125 10.125H8.4375" stroke="#000000" stroke-width="1.5" stroke-linecap="round" stroke-linejoin="round"/>
</svg>
