<svg width="16" height="16" viewBox="0 0 16 16" fill="none" xmlns="http://www.w3.org/2000/svg">
<g clip-path="url(#clip0_17_3006)">
<ellipse cx="8.99996" cy="7.99992" rx="6.66667" ry="5.66667" transform="rotate(90 8.99996 7.99992)" stroke="#C4C4C4" stroke-linejoin="round"/>
<path d="M9.09493 14.6666C9.0765 14.6666 6.48727 14.6665 6.46889 14.6662C3.62756 14.6282 1.33337 11.6581 1.33337 7.99992C1.33337 4.36542 3.5979 1.41021 6.41367 1.33473C6.45039 1.33374 10.3545 1.33325 9.0765 1.33325" stroke="#C4C4C4" stroke-linecap="round" stroke-linejoin="round"/>
<line x1="2.83337" y1="6.5" x2="1.83337" y2="6.5" stroke="#C4C4C4" stroke-linecap="round" stroke-linejoin="round"/>
<line x1="2.83337" y1="9.16675" x2="1.83337" y2="9.16675" stroke="#C4C4C4" stroke-linecap="round" stroke-linejoin="round"/>
<line x1="4.16663" y1="11.8333" x2="2.49996" y2="11.8333" stroke="#C4C4C4" stroke-linecap="round" stroke-linejoin="round"/>
<line x1="4.16663" y1="3.83325" x2="2.49996" y2="3.83325" stroke="#C4C4C4" stroke-linecap="round" stroke-linejoin="round"/>
<path d="M10.0875 11.054C9.67946 11.054 9.29546 10.964 8.93546 10.784C8.58146 10.604 8.28446 10.361 8.04446 10.055C7.81046 9.749 7.66946 9.416 7.62146 9.056H7.37846C7.25846 9.056 7.15646 9.014 7.07246 8.93C6.98846 8.84 6.94646 8.738 6.94646 8.624C6.94646 8.504 6.98846 8.402 7.07246 8.318C7.15646 8.228 7.25846 8.183 7.37846 8.183H7.57646C7.58246 8.015 7.60046 7.877 7.63046 7.769H7.37846C7.25846 7.769 7.15646 7.727 7.07246 7.643C6.98846 7.553 6.94646 7.448 6.94646 7.328C6.94646 7.208 6.98846 7.106 7.07246 7.022C7.15646 6.938 7.25846 6.896 7.37846 6.896H7.87346C7.97546 6.626 8.12846 6.347 8.33246 6.059C8.54246 5.765 8.80646 5.516 9.12446 5.312C9.44246 5.102 9.79646 4.997 10.1865 4.997C10.7385 4.997 11.2155 5.165 11.6175 5.501C11.7135 5.585 11.7615 5.696 11.7615 5.834C11.7615 5.942 11.7195 6.038 11.6355 6.122C11.5515 6.206 11.4555 6.248 11.3475 6.248C11.2875 6.248 11.2335 6.239 11.1855 6.221C11.1435 6.197 11.0925 6.164 11.0325 6.122C10.7925 5.936 10.5045 5.843 10.1685 5.843C9.88646 5.843 9.61946 5.945 9.36746 6.149C9.12146 6.353 8.92646 6.602 8.78246 6.896H10.0245C10.1505 6.896 10.2555 6.938 10.3395 7.022C10.4235 7.106 10.4655 7.208 10.4655 7.328C10.4655 7.448 10.4235 7.553 10.3395 7.643C10.2555 7.727 10.1505 7.769 10.0245 7.769H8.49446C8.45846 7.865 8.43446 8.003 8.42246 8.183L10.0245 8.192C10.1505 8.192 10.2555 8.234 10.3395 8.318C10.4235 8.402 10.4655 8.504 10.4655 8.624C10.4655 8.744 10.4235 8.849 10.3395 8.939C10.2555 9.023 10.1505 9.065 10.0245 9.065H8.48546C8.56346 9.317 8.68946 9.53 8.86346 9.704C9.04346 9.872 9.23846 9.998 9.44846 10.082C9.66446 10.166 9.86546 10.208 10.0515 10.208C10.3635 10.208 10.6665 10.139 10.9605 10.001C11.0205 9.977 11.0715 9.965 11.1135 9.965C11.2335 9.965 11.3325 10.007 11.4105 10.091C11.4885 10.169 11.5275 10.268 11.5275 10.388C11.5275 10.58 11.4435 10.712 11.2755 10.784C10.8855 10.964 10.4895 11.054 10.0875 11.054Z" fill="#C4C4C4"/>
</g>
<defs>
<clipPath id="clip0_17_3006">
<rect width="16" height="16" fill="white"/>
</clipPath>
</defs>
</svg>
