<svg width="23" height="23" viewBox="0 0 23 23" fill="none" xmlns="http://www.w3.org/2000/svg">
<path d="M11.5 21.625C17.0919 21.625 21.625 17.0919 21.625 11.5C21.625 5.90812 17.0919 1.375 11.5 1.375C5.90812 1.375 1.375 5.90812 1.375 11.5C1.375 17.0919 5.90812 21.625 11.5 21.625Z" stroke="#1D2A40" stroke-width="1.5" stroke-linecap="round" stroke-linejoin="round"/>
<path d="M11.5 17.4062C14.7619 17.4062 17.4062 14.7619 17.4062 11.5C17.4062 8.23807 14.7619 5.59375 11.5 5.59375C8.23807 5.59375 5.59375 8.23807 5.59375 11.5C5.59375 14.7619 8.23807 17.4062 11.5 17.4062Z" stroke="#1D2A40" stroke-width="1.5" stroke-linecap="round" stroke-linejoin="round"/>
<path d="M7.32393 7.32368L4.34082 4.34058" stroke="#1D2A40" stroke-width="1.5" stroke-linecap="round" stroke-linejoin="round"/>
<path d="M7.32393 15.6763L4.34082 18.6594" stroke="#1D2A40" stroke-width="1.5" stroke-linecap="round" stroke-linejoin="round"/>
<path d="M15.6768 15.6763L18.6599 18.6594" stroke="#1D2A40" stroke-width="1.5" stroke-linecap="round" stroke-linejoin="round"/>
<path d="M15.6768 7.32368L18.6599 4.34058" stroke="#1D2A40" stroke-width="1.5" stroke-linecap="round" stroke-linejoin="round"/>
</svg>
