<svg width="36" height="22" viewBox="0 0 36 22" fill="none" xmlns="http://www.w3.org/2000/svg">
<rect width="36" height="22" rx="9" fill="#C4C4C4"/>
<path d="M22.064 15L20.42 12.78L18.764 15H17.108L19.604 11.748L17.216 8.592H18.884L20.456 10.692L22.028 8.592H23.648L21.248 11.724L23.756 15H22.064ZM31.473 13.092H29.985V15H28.473V13.092H23.865V12.012L28.005 6.6H29.673L25.773 11.772H28.521V10.08H29.985V11.772H31.473V13.092Z" fill="white"/>
<path d="M5.89702 8.10124C5.3098 7.94448 5.24117 7.04895 5.63168 6.68802C5.73299 6.59372 5.8675 6.54344 6.00577 6.5482C6.70656 6.55014 7.40752 6.55014 8.10864 6.5482C8.19162 6.54725 8.27322 6.52687 8.34691 6.48869C8.93172 6.17276 9.51362 5.85296 10.096 5.53219C10.2736 5.43452 10.4734 5.38452 10.676 5.38705C11.9571 5.38899 13.238 5.38899 14.5188 5.38705H14.672C14.672 5.32415 14.672 5.27239 14.672 5.2211C14.6734 5.07257 14.7435 5 14.8953 5C15.3866 5 15.8781 5 16.3698 5C16.5342 5 16.6028 5.07064 16.6028 5.23755C16.6028 5.9594 16.6028 6.68109 16.6028 7.40261C16.6028 7.4955 16.6028 7.58791 16.6028 7.6808C16.5999 7.82595 16.5298 7.90142 16.3897 7.90191C15.886 7.90384 15.3824 7.90384 14.8788 7.90191C14.7445 7.90191 14.6734 7.82546 14.67 7.68903C14.6671 7.57243 14.67 7.45583 14.67 7.33101H14.2877C14.1911 7.90916 13.8441 8.2338 13.2477 8.29863C13.3717 8.72149 13.4953 9.14224 13.6184 9.5609C13.758 10.036 13.9011 10.5097 14.0355 10.9862C14.0693 11.1062 14.0867 11.2302 14.0872 11.3549C14.0904 13.145 14.0904 14.9351 14.0872 16.7252C14.0872 16.941 14.0292 17 13.8175 17H5.27549C5.05558 17 5 16.9434 5 16.7194C5 14.9335 5 13.1474 5 11.3612C5.00097 11.2207 5.0213 11.081 5.06041 10.9461C5.32913 10.0181 5.60462 9.09257 5.87769 8.16607C5.88542 8.14817 5.88977 8.1293 5.89702 8.10124ZM12.5541 8.48829C12.4927 8.53667 12.4575 8.56038 12.4246 8.58505C12.151 8.79696 11.8833 9.01709 11.603 9.21981C11.4853 9.30812 11.3466 9.36391 11.2006 9.38158C11.0546 9.39926 10.9065 9.37819 10.7713 9.3205C10.636 9.26282 10.5182 9.17053 10.4298 9.05291C10.3414 8.93529 10.2855 8.79647 10.2676 8.65036C10.2453 8.47184 10.2995 8.28412 10.3159 8.10075H6.30445C6.29043 8.14333 6.27497 8.18445 6.26289 8.22655C5.98643 9.17191 5.7103 10.1176 5.43449 11.0636C5.4063 11.16 5.39166 11.2598 5.391 11.3602C5.38777 13.0652 5.38616 14.7703 5.38616 16.4755V16.6062H11.7658V16.4552C11.7658 14.7535 11.7658 13.0523 11.7658 11.3515C11.7669 11.2189 11.786 11.0871 11.8224 10.9596C11.965 10.4564 12.1177 9.95569 12.2656 9.45446C12.3622 9.14289 12.4531 8.83083 12.5541 8.48635V8.48829ZM9.08879 6.52885L9.09749 6.55062H9.2304C10.1207 6.55062 11.0109 6.55062 11.9012 6.55062C11.9647 6.54972 12.0273 6.56647 12.0819 6.599C12.1897 6.67254 12.1786 6.8022 12.0607 6.91928C11.6386 7.34085 11.217 7.76225 10.7958 8.18349C10.6803 8.29863 10.618 8.43362 10.6436 8.59715C10.6544 8.67861 10.6866 8.75573 10.7371 8.82055C10.7875 8.88538 10.8543 8.93556 10.9306 8.96592C11.0069 8.99629 11.0899 9.00574 11.171 8.99331C11.2522 8.98087 11.3285 8.94699 11.3922 8.89517C11.689 8.6731 11.992 8.45636 12.267 8.20913C12.5295 7.97303 12.8108 7.84917 13.1631 7.90336C13.1832 7.90481 13.2034 7.90481 13.2235 7.90336C13.3968 7.90663 13.5644 7.84153 13.6901 7.72212C13.8158 7.60271 13.8895 7.43859 13.8953 7.26521C13.9093 7.04798 14.0253 6.93767 14.2442 6.93573C14.3834 6.93573 14.5231 6.93573 14.6599 6.93573V5.7741H14.5057C13.3293 5.7741 12.1525 5.78329 10.9776 5.76878C10.6262 5.76442 10.3149 5.82925 10.0158 6.01504C9.71661 6.20082 9.39762 6.35758 9.08879 6.52691V6.52885ZM12.9432 8.64262H12.9176C12.9113 8.66004 12.904 8.67746 12.8987 8.69536C12.659 9.50591 12.4198 10.3165 12.181 11.127C12.1641 11.1891 12.1558 11.2533 12.1564 11.3176C12.1564 12.9548 12.1564 14.5919 12.1564 16.2288C12.1564 16.2578 12.1622 16.2869 12.1675 16.3391C12.3424 16.1616 12.498 16.0004 12.6595 15.8408C12.6858 15.817 12.7064 15.7876 12.7199 15.7548C12.7333 15.722 12.7393 15.6866 12.7373 15.6511C12.7354 14.3287 12.7354 13.0063 12.7373 11.6839C12.7349 11.6437 12.7358 11.6034 12.7402 11.5634C12.7476 11.5187 12.7705 11.478 12.8048 11.4484C12.8391 11.4189 12.8827 11.4023 12.9279 11.4016C12.9732 11.4009 13.0173 11.4162 13.0525 11.4447C13.0877 11.4732 13.1118 11.5131 13.1206 11.5576C13.1253 11.5977 13.1265 11.6382 13.1239 11.6785C13.1239 12.8678 13.1239 14.0571 13.1239 15.2467C13.1239 15.416 13.079 15.6047 13.1399 15.7493C13.2008 15.894 13.367 16.0033 13.4883 16.1262C13.5536 16.1925 13.6208 16.2559 13.7039 16.3367V16.1732C13.7039 14.73 13.6967 13.2863 13.7083 11.843C13.7116 11.4226 13.6706 11.0177 13.5289 10.6214C13.4734 10.4666 13.4347 10.3055 13.3878 10.1473C13.239 9.64412 13.0907 9.14192 12.9432 8.64069V8.64262ZM11.4908 6.94202C11.4478 6.93864 11.4328 6.93622 11.4183 6.93622C9.6185 6.93622 7.81898 6.93622 6.01978 6.93622C5.98151 6.93392 5.94347 6.94364 5.91098 6.96402C5.87849 6.9844 5.85316 7.01443 5.83854 7.04991C5.7952 7.1345 5.77259 7.2282 5.77259 7.32327C5.77259 7.41833 5.7952 7.51203 5.83854 7.59662C5.8545 7.63388 5.88175 7.66517 5.91644 7.68609C5.95113 7.70701 5.9915 7.7165 6.03186 7.71322C7.56685 7.71064 9.10345 7.70935 10.6417 7.70935C10.6843 7.70993 10.7258 7.69574 10.7591 7.66919C10.9983 7.43503 11.2342 7.19796 11.4908 6.94202ZM16.2079 7.51147V5.39721H15.0625V7.51147H16.2079ZM13.3907 16.6071L12.9354 16.1509L12.4749 16.6071H13.3907Z" fill="white"/>
<path d="M9.81799 13.053L9.78223 12.9901L9.9886 12.875L10.0234 12.9408L9.81799 13.053Z" fill="white"/>
<path d="M9.01953 13.1083C9.13056 13.1025 9.24187 13.1049 9.35253 13.1156C9.40353 13.1276 9.44902 13.1564 9.48169 13.1974C9.51435 13.2384 9.53229 13.2892 9.53263 13.3416C9.53296 13.394 9.51567 13.4451 9.48353 13.4865C9.45139 13.5279 9.40627 13.5573 9.35543 13.5699L9.31193 13.581C9.3825 13.6749 9.45693 13.7716 9.52362 13.8621H9.42164L9.38636 13.8137L9.16259 13.5152C9.20199 13.5185 9.2416 13.5185 9.281 13.5152C9.32031 13.5101 9.35806 13.4966 9.39168 13.4756C9.4191 13.4573 9.4397 13.4304 9.45028 13.3992C9.46085 13.3679 9.46081 13.334 9.45016 13.3028C9.44192 13.2701 9.42338 13.2408 9.39727 13.2194C9.37117 13.198 9.33888 13.1855 9.30517 13.1838C9.23642 13.1802 9.16754 13.1802 9.09879 13.1838V13.866H9.01953V13.1083Z" fill="white"/>
<path d="M8.20634 13.8611H8.11838C8.09518 13.8079 8.05651 13.6937 8.02993 13.6419C8.02457 13.6311 8.0186 13.6206 8.01205 13.6105C7.91539 13.6105 7.76169 13.6105 7.66648 13.6105C7.66061 13.6204 7.6556 13.6307 7.6515 13.6415C7.63023 13.6942 7.58045 13.8089 7.55822 13.8611H7.47461L7.57659 13.6192C7.64618 13.4552 7.71626 13.2612 7.78489 13.0967H7.8946L8.20634 13.8611ZM7.84192 13.1963L7.69693 13.535H7.98402L7.84192 13.1963Z" fill="white"/>
<path d="M8.89848 13.3028C8.87431 13.3028 8.8168 13.3028 8.8168 13.3028C8.8168 13.3028 8.80472 13.2897 8.79408 13.2752C8.66069 13.0976 8.37602 13.1364 8.27453 13.3376C8.23663 13.4076 8.22673 13.4893 8.24684 13.5663C8.26694 13.6433 8.31554 13.7098 8.38279 13.7522C8.44437 13.7963 8.5204 13.8151 8.59539 13.805C8.67038 13.7948 8.73867 13.7564 8.78635 13.6976C8.79892 13.6831 8.81003 13.669 8.81003 13.669C8.8391 13.6661 8.8683 13.6648 8.89751 13.6652C8.86368 13.7726 8.69597 13.9027 8.49975 13.8776C8.4063 13.8661 8.32003 13.8215 8.25653 13.752C8.19303 13.6824 8.15649 13.5924 8.15352 13.4982C8.15054 13.404 8.18132 13.3118 8.2403 13.2384C8.29928 13.1649 8.38256 13.115 8.4751 13.0976C8.65151 13.0647 8.8487 13.1586 8.89848 13.3028Z" fill="white"/>
<path d="M7.02556 13.6502H7.10386C7.10773 13.6647 7.10386 13.6777 7.10966 13.6908C7.11591 13.7252 7.1348 13.7561 7.16261 13.7773C7.19042 13.7985 7.22514 13.8086 7.25997 13.8055C7.29362 13.8062 7.32649 13.7953 7.35295 13.7744C7.3794 13.7536 7.39779 13.7242 7.40496 13.6913C7.41425 13.6573 7.41009 13.621 7.39335 13.59C7.37661 13.559 7.34857 13.5357 7.31507 13.5248C7.26674 13.5045 7.21841 13.491 7.16669 13.4726C7.12607 13.4606 7.09103 13.4346 7.06783 13.3991C7.04463 13.3637 7.03479 13.3211 7.04006 13.2791C7.04345 13.2344 7.06158 13.1922 7.09159 13.159C7.12161 13.1258 7.1618 13.1035 7.20584 13.0957C7.3431 13.0734 7.45668 13.1547 7.46344 13.282C7.46399 13.2879 7.46399 13.2939 7.46344 13.2999H7.38708C7.38708 13.2892 7.38128 13.2776 7.37838 13.2655C7.3744 13.2483 7.36696 13.232 7.35651 13.2177C7.34607 13.2034 7.33283 13.1913 7.31761 13.1823C7.30239 13.1732 7.28549 13.1674 7.26794 13.1651C7.25039 13.1627 7.23255 13.164 7.21551 13.1688C7.19912 13.1723 7.18361 13.1791 7.16992 13.1887C7.15624 13.1984 7.14466 13.2108 7.13589 13.2251C7.12712 13.2394 7.12135 13.2553 7.11892 13.2719C7.11648 13.2885 7.11745 13.3054 7.12174 13.3216C7.13282 13.3523 7.15486 13.3779 7.18361 13.3932C7.23519 13.416 7.28794 13.4361 7.34165 13.4532C7.38527 13.4698 7.42251 13.4998 7.44803 13.5388C7.47355 13.5779 7.48603 13.6241 7.48367 13.6707C7.4813 13.7174 7.46422 13.762 7.43488 13.7983C7.40554 13.8346 7.36545 13.8607 7.32038 13.8727C7.28592 13.8841 7.24921 13.8869 7.21342 13.881C7.17762 13.875 7.14379 13.8605 7.11482 13.8386C7.08584 13.8168 7.06259 13.7882 7.04705 13.7554C7.03151 13.7226 7.02414 13.6864 7.02556 13.6502Z" fill="white"/>
<path d="M9.71701 13.7941C9.80014 13.7941 9.92338 13.7941 10.007 13.7941H10.0553V13.8624H9.64258V13.1018H10.0544V13.1695H9.71894V13.4448H10.0461V13.515H9.71846L9.71701 13.7941Z" fill="white"/>
<path d="M6.73915 14.0957H6.62267L6.30417 14.8558L6.30176 14.8616H6.4656L6.5468 14.6656H6.8131L6.89284 14.8592V14.8616H7.05717L6.73915 14.0957ZM6.76235 14.5273H6.59851L6.67971 14.3076L6.76235 14.5273Z" fill="white"/>
<path d="M7.56382 14.5174C7.58781 14.4939 7.60644 14.4656 7.61844 14.4342C7.63119 14.4022 7.6379 14.368 7.63825 14.3336C7.63924 14.297 7.63152 14.2607 7.61572 14.2278C7.59992 14.1948 7.57649 14.166 7.54739 14.1439C7.49217 14.107 7.42605 14.0899 7.35987 14.0955H7.12305V14.8638H7.27094V14.5793L7.46765 14.8633H7.6484L7.44203 14.5793C7.48716 14.5692 7.52904 14.5479 7.56382 14.5174V14.5174ZM7.4894 14.3437C7.49035 14.3597 7.48751 14.3756 7.48113 14.3902C7.47475 14.4049 7.46499 14.4178 7.45266 14.4279C7.42468 14.4483 7.39054 14.4584 7.356 14.4565H7.27094V14.2329H7.35794C7.39156 14.2318 7.4246 14.242 7.4517 14.262C7.46413 14.2715 7.47406 14.2839 7.48063 14.2982C7.48719 14.3124 7.4902 14.3281 7.4894 14.3437Z" fill="white"/>
<path d="M8.11891 14.6627L7.91882 14.0933H7.7168V14.8616H7.86566V14.3071L8.05463 14.8587L8.0556 14.8616H8.18029L8.37023 14.3042V14.8616H8.51909V14.0933H8.31707L8.11891 14.6627Z" fill="white"/>
<path d="M9.01603 14.0957H8.90052L8.58347 14.8582L8.58105 14.864H8.7449L8.82609 14.6681H9.0924L9.17214 14.8616V14.864H9.33598L9.017 14.0957H9.01603ZM9.03875 14.5273H8.87636L8.95755 14.3076L9.03875 14.5273Z" fill="white"/>
<path d="M9.88329 14.6376L9.57493 14.0957L9.57397 14.0933H9.40723V14.8616H9.55609V14.3173L9.86734 14.8596L9.8683 14.8616H10.0321V14.0933H9.88329V14.6376Z" fill="white"/>
<path d="M10.7435 14.3158C10.7233 14.2647 10.6914 14.2191 10.6502 14.1828C10.5826 14.1233 10.4767 14.0933 10.3356 14.0933H10.1592V14.8616H10.3385C10.4261 14.8667 10.5136 14.8501 10.5932 14.8132C10.6507 14.781 10.6975 14.7325 10.7276 14.6738C10.7596 14.6144 10.7762 14.5479 10.7759 14.4803C10.7763 14.4239 10.7653 14.3679 10.7435 14.3158V14.3158ZM10.628 14.4793C10.628 14.5214 10.6178 14.5627 10.598 14.5998C10.5796 14.6357 10.5513 14.6654 10.5163 14.6854C10.4594 14.7126 10.3966 14.7251 10.3337 14.7217H10.308V14.2331C10.3438 14.2331 10.3728 14.2331 10.3936 14.2331C10.42 14.2361 10.4461 14.2418 10.4714 14.25C10.4998 14.2589 10.526 14.2738 10.5482 14.2936C10.5742 14.316 10.5945 14.3444 10.6072 14.3763C10.621 14.4089 10.6281 14.4439 10.628 14.4793V14.4793Z" fill="white"/>
<path d="M8.97821 12.5803L9.05602 12.7811L8.71094 12.6979C8.73977 12.692 8.76818 12.6843 8.796 12.6747C8.86106 12.6524 8.92246 12.6206 8.97821 12.5803V12.5803Z" fill="white"/>
<path d="M8.82193 11.7249C8.85671 11.7248 8.89073 11.735 8.9197 11.7542C8.94867 11.7735 8.9713 11.8009 8.98471 11.833C8.99813 11.8651 9.00174 11.9005 8.99508 11.9347C8.98843 11.9688 8.97181 12.0003 8.94732 12.025C8.92283 12.0497 8.89158 12.0666 8.8575 12.0735C8.82343 12.0805 8.78806 12.0772 8.75587 12.064C8.72368 12.0508 8.69611 12.0284 8.67664 11.9996C8.65717 11.9707 8.64668 11.9367 8.64649 11.9019C8.6463 11.8787 8.6507 11.8558 8.65943 11.8343C8.66816 11.8128 8.68105 11.7933 8.69736 11.7768C8.71367 11.7603 8.73308 11.7473 8.75446 11.7384C8.77584 11.7294 8.79877 11.7249 8.82193 11.7249ZM8.89008 11.9435C8.89974 11.9498 8.90651 11.946 8.90313 11.9324C8.89931 11.9114 8.88809 11.8925 8.8715 11.8791C8.85491 11.8657 8.83406 11.8587 8.81275 11.8594C8.76979 11.8621 8.72875 11.8782 8.6953 11.9053C8.67839 11.9208 8.68032 11.9334 8.70062 11.9445C8.71137 11.9492 8.72297 11.9516 8.73469 11.9516C8.74642 11.9516 8.75802 11.9492 8.76877 11.9445C8.78741 11.9347 8.80805 11.9294 8.82909 11.9289C8.85012 11.9284 8.87099 11.9327 8.89008 11.9416V11.9435Z" fill="white"/>
<path d="M8.46757 11.899C8.4652 11.9442 8.44561 11.9867 8.41283 12.0179C8.38005 12.049 8.33659 12.0664 8.2914 12.0664C8.24621 12.0664 8.20275 12.049 8.16997 12.0179C8.13719 11.9867 8.1176 11.9442 8.11523 11.899C8.11671 11.8529 8.13585 11.8091 8.16868 11.7767C8.20151 11.7442 8.24553 11.7257 8.29164 11.7249C8.33797 11.7249 8.38242 11.7431 8.41536 11.7757C8.4483 11.8084 8.46706 11.8527 8.46757 11.899V11.899ZM8.35012 11.9861C8.36096 11.9865 8.37176 11.9846 8.38181 11.9805C8.39187 11.9764 8.40097 11.9703 8.40852 11.9625C8.41608 11.9547 8.42192 11.9454 8.42568 11.9353C8.42944 11.9251 8.43103 11.9142 8.43035 11.9034C8.43068 11.8926 8.42883 11.8819 8.4249 11.8719C8.42097 11.8619 8.41505 11.8528 8.40751 11.8452C8.39996 11.8375 8.39094 11.8315 8.38099 11.8274C8.37104 11.8234 8.36038 11.8214 8.34964 11.8216C8.32875 11.8232 8.30923 11.8326 8.29499 11.848C8.28075 11.8634 8.27284 11.8836 8.27284 11.9046C8.27284 11.9256 8.28075 11.9458 8.29499 11.9611C8.30923 11.9765 8.32875 11.986 8.34964 11.9876L8.35012 11.9861Z" fill="white"/>
<path d="M8.34597 12.6747C8.37407 12.6844 8.40282 12.6921 8.432 12.6979L8.08691 12.7811L8.16473 12.5803C8.21989 12.6203 8.28063 12.6519 8.345 12.6742V12.6742L8.34597 12.6747Z" fill="white"/>
<path d="M8.57619 11.3901C8.57619 11.3901 8.95317 11.3727 9.07786 11.559C9.09575 11.5527 9.12619 11.5295 9.13489 11.4405C9.14092 11.4086 9.14222 11.376 9.13876 11.3437C9.12464 11.2765 9.09394 11.214 9.04944 11.1617C9.00495 11.1095 8.94809 11.0693 8.88406 11.0447C8.75007 10.9935 8.60464 10.9801 8.46358 11.006C8.43071 11.0141 8.39689 11.0177 8.36305 11.0166C8.35779 11.0169 8.35256 11.0158 8.34777 11.0137C8.34298 11.0115 8.33878 11.0082 8.3355 11.0041C8.32113 10.9842 8.30179 10.9685 8.27944 10.9586C8.26204 10.9504 8.25044 10.9523 8.24271 10.9649C8.24033 10.9682 8.23871 10.9719 8.23796 10.9759C8.23721 10.9799 8.23735 10.984 8.23836 10.9879C8.23938 10.9919 8.24125 10.9955 8.24384 10.9986C8.24643 11.0018 8.24967 11.0043 8.25334 11.006C8.26435 11.0131 8.27428 11.0217 8.28282 11.0316C8.28717 11.037 8.29007 11.0408 8.27992 11.0447C8.25626 11.0545 8.234 11.0673 8.21371 11.0829C8.03629 11.2092 7.88264 11.366 7.75988 11.5459C7.74748 11.5626 7.73694 11.5806 7.72847 11.5996C7.72371 11.609 7.72107 11.6192 7.72074 11.6297C7.72041 11.6402 7.72239 11.6506 7.72655 11.6602C7.7307 11.6698 7.73693 11.6784 7.74478 11.6853C7.75263 11.6922 7.76191 11.6973 7.77196 11.7003L7.7913 11.7065C7.8244 11.7145 7.8588 11.7155 7.89231 11.7095H7.89666H7.90197L7.95417 11.6988H7.95707L7.97447 11.6954C7.97447 11.6954 8.04455 11.4153 8.57619 11.3901ZM9.12668 11.4777C9.12477 11.4873 9.12235 11.4969 9.11943 11.5062C9.12187 11.4968 9.1238 11.4873 9.12523 11.4777H9.12668Z" fill="white"/>
<path d="M9.08637 11.6517C9.05971 11.6148 9.02926 11.5807 8.99551 11.5501C8.87613 11.4534 8.70552 11.4418 8.62094 11.4432C8.56536 11.4432 8.50398 11.45 8.43728 11.4577C8.20723 11.4945 8.11008 11.5889 8.0922 11.6077C8.02559 11.686 7.97906 11.7793 7.95664 11.8796C7.93421 11.9799 7.93658 12.0842 7.96353 12.1834C7.99048 12.2826 8.04121 12.3737 8.1113 12.4488C8.18139 12.524 8.26873 12.5808 8.36575 12.6145L8.47933 12.644C8.51038 12.6486 8.54171 12.651 8.57309 12.6513C8.60318 12.6513 8.63323 12.649 8.66299 12.6445L8.77802 12.6165C8.87106 12.585 8.95543 12.532 9.02434 12.462C9.09326 12.3919 9.1448 12.3066 9.17483 12.213C9.20486 12.1194 9.21255 12.02 9.19727 11.9229C9.18199 11.8257 9.14417 11.7335 9.08685 11.6537L9.08637 11.6517ZM8.67266 11.5453C8.67266 11.5337 8.67701 11.5298 8.68812 11.5298H8.78478C8.8162 11.5298 8.8481 11.5298 8.88144 11.5298C8.89401 11.5298 8.89981 11.5342 8.89788 11.5472V11.5584C8.89788 11.5714 8.89353 11.5743 8.88193 11.5743H8.6886C8.67652 11.5743 8.67169 11.57 8.67266 11.5579C8.67338 11.5537 8.67338 11.5495 8.67266 11.5453V11.5453ZM8.26474 11.6227C8.26474 11.6145 8.26813 11.6116 8.27683 11.6116H8.4339C8.44357 11.6116 8.4455 11.6155 8.4455 11.6242C8.4455 11.6609 8.44888 11.6542 8.41699 11.6547H8.35657C8.33144 11.6547 8.30824 11.6547 8.28118 11.6547C8.26909 11.6547 8.26329 11.6513 8.26474 11.6387C8.2652 11.6334 8.2652 11.628 8.26474 11.6227ZM8.97859 12.3001L9.00904 12.2899C8.99357 12.3184 8.98632 12.3238 8.92639 12.3567L8.96602 12.3465C8.95007 12.376 8.91141 12.3949 8.8481 12.4021C8.85293 12.4021 8.90319 12.3978 8.90803 12.3988L8.8597 12.4142C8.80044 12.4302 8.73783 12.4287 8.67942 12.4099C8.65112 12.3999 8.62538 12.3837 8.60407 12.3625C8.58276 12.3414 8.5664 12.3157 8.55618 12.2875C8.54587 12.3157 8.52948 12.3413 8.50818 12.3624C8.48688 12.3836 8.46119 12.3998 8.43293 12.4099C8.37452 12.4287 8.31191 12.4302 8.25266 12.4142L8.20433 12.3988C8.20916 12.3988 8.25943 12.4031 8.26426 12.4021C8.20095 12.3939 8.1618 12.376 8.14633 12.3465L8.18935 12.3538C8.12942 12.3209 8.12217 12.3155 8.1067 12.287L8.13715 12.2972C8.10928 12.273 8.0908 12.2397 8.08495 12.2033C8.09752 12.2168 8.10477 12.2251 8.11298 12.2323C8.1212 12.2396 8.12893 12.2454 8.13667 12.2522C8.10941 12.2189 8.09259 12.1784 8.08834 12.1356L8.10573 12.1598C8.11893 12.1801 8.13643 12.1972 8.157 12.21C8.17756 12.2228 8.20068 12.2308 8.22472 12.2337C8.24876 12.2365 8.27312 12.234 8.29607 12.2263C8.31903 12.2186 8.34001 12.206 8.35754 12.1893L8.38364 12.1636C8.40672 12.1363 8.43945 12.119 8.47498 12.1152C8.49097 12.1147 8.50688 12.1177 8.52164 12.1238C8.5364 12.13 8.54966 12.1393 8.56053 12.151C8.57134 12.1394 8.58452 12.1301 8.59919 12.1239C8.61386 12.1178 8.62968 12.1148 8.64559 12.1152C8.68127 12.119 8.71415 12.1363 8.73742 12.1636L8.76352 12.1893C8.78096 12.2052 8.80163 12.2172 8.82412 12.2245C8.84661 12.2317 8.8704 12.2341 8.89387 12.2313C8.91734 12.2286 8.93994 12.2208 8.96015 12.2085C8.98035 12.1963 8.99768 12.1798 9.01097 12.1602L9.02837 12.136C9.02426 12.1789 9.00743 12.2195 8.98004 12.2526C8.98826 12.2459 8.99696 12.2401 9.00421 12.2328C9.01146 12.2256 9.01967 12.2173 9.03224 12.2038C9.02622 12.2408 9.00719 12.2744 8.97859 12.2986V12.3001ZM8.32226 12.2086C8.32226 12.2086 8.32322 12.2086 8.32226 12.2086V12.2086ZM8.8336 12.1157C8.78077 12.1186 8.72873 12.102 8.68725 12.0691C8.64578 12.0362 8.61773 11.9893 8.60838 11.9372C8.60264 11.907 8.60396 11.8759 8.61224 11.8462C8.61659 11.8332 8.61224 11.8288 8.60161 11.825C8.5745 11.8148 8.54463 11.8148 8.51751 11.825C8.50301 11.8298 8.49963 11.837 8.50301 11.8525C8.5148 11.9055 8.50622 11.961 8.47898 12.0079C8.45173 12.0548 8.40783 12.0897 8.35602 12.1057C8.3042 12.1217 8.24828 12.1175 8.1994 12.094C8.15052 12.0705 8.11227 12.0295 8.09227 11.9791C8.07227 11.9286 8.07199 11.8725 8.09148 11.8219C8.11098 11.7712 8.14882 11.7298 8.19746 11.7058C8.2461 11.6819 8.30198 11.6772 8.35395 11.6926C8.40592 11.708 8.45017 11.7425 8.47788 11.7892C8.4861 11.8032 8.4919 11.8071 8.50785 11.8003C8.52376 11.7936 8.54085 11.7901 8.55811 11.7901C8.57538 11.7901 8.59246 11.7936 8.60838 11.8003C8.62239 11.8061 8.62867 11.8037 8.63689 11.7906C8.65642 11.7573 8.68452 11.7299 8.71826 11.7112C8.752 11.6926 8.79014 11.6833 8.82867 11.6845C8.86721 11.6856 8.90473 11.6971 8.93731 11.7177C8.96989 11.7383 8.99634 11.7674 9.01387 11.8017C9.02989 11.8315 9.0382 11.8647 9.03804 11.8985C9.03837 11.9541 9.01734 12.0077 8.97928 12.0483C8.94123 12.0888 8.88907 12.1131 8.8336 12.1162V12.1157Z" fill="white"/>
</svg>
