<svg width="8" height="13" viewBox="0 0 8 13" fill="none" xmlns="http://www.w3.org/2000/svg">
<path d="M1.375 1.1875L6.6875 6.5L1.375 11.8125" stroke="black" stroke-linecap="round" stroke-linejoin="round"/>
</svg>
