<svg width="28" height="28" viewBox="0 0 28 28" fill="none" xmlns="http://www.w3.org/2000/svg">
<path d="M14 24.5C19.799 24.5 24.5 19.799 24.5 14C24.5 8.20101 19.799 3.5 14 3.5C8.20101 3.5 3.5 8.20101 3.5 14C3.5 19.799 8.20101 24.5 14 24.5Z" stroke="#112842" stroke-width="1.5" stroke-linecap="round" stroke-linejoin="round"/>
<path d="M13.125 13.125H14.0001L14 19.25H14.875" stroke="#112842" stroke-width="1.5" stroke-linecap="round" stroke-linejoin="round"/>
<path d="M14 10.2812C14.6041 10.2812 15.0938 9.79156 15.0938 9.1875C15.0938 8.58344 14.6041 8.09375 14 8.09375C13.3959 8.09375 12.9062 8.58344 12.9062 9.1875C12.9062 9.79156 13.3959 10.2812 14 10.2812Z" fill="#112842"/>
</svg>
