<svg width="17" height="17" viewBox="0 0 17 17" fill="none" xmlns="http://www.w3.org/2000/svg">
<circle cx="8.5" cy="8.5" r="8.5" fill="#000000"/>
<path d="M8.43098 6.30931L9.25593 5.48435C9.42615 5.31398 9.62826 5.17882 9.85072 5.08658C10.0732 4.99434 10.3116 4.94683 10.5525 4.94678C10.7933 4.94672 11.0318 4.99411 11.2543 5.08625C11.4768 5.17839 11.679 5.31346 11.8493 5.48375C12.0196 5.65404 12.1546 5.85621 12.2468 6.07872C12.3389 6.30123 12.3863 6.53971 12.3862 6.78054C12.3862 7.02137 12.3387 7.25982 12.2464 7.48229C12.1542 7.70475 12.019 7.90687 11.8487 8.07708L10.6701 9.25559C10.4999 9.42583 10.2978 9.56087 10.0754 9.65301C9.85294 9.74514 9.61454 9.79256 9.37379 9.79256C9.13303 9.79256 8.89463 9.74514 8.6722 9.65301C8.44977 9.56087 8.24766 9.42583 8.07742 9.25559" stroke="white" stroke-linecap="round" stroke-linejoin="round"/>
<path d="M8.90237 11.0233L8.07741 11.8482C7.9072 12.0186 7.70509 12.1538 7.48262 12.246C7.26016 12.3383 7.0217 12.3858 6.78087 12.3858C6.54004 12.3859 6.30156 12.3385 6.07906 12.2463C5.85655 12.1542 5.65438 12.0191 5.48408 11.8489C5.31379 11.6786 5.17872 11.4764 5.08659 11.2539C4.99445 11.0314 4.94706 10.7929 4.94711 10.5521C4.94717 10.3112 4.99467 10.0728 5.08691 9.85031C5.17915 9.62785 5.31432 9.42573 5.48469 9.25552L6.6632 8.07701C6.83344 7.90677 7.03555 7.77173 7.25798 7.67959C7.48041 7.58746 7.7188 7.54004 7.95956 7.54004C8.20032 7.54004 8.43872 7.58746 8.66115 7.67959C8.88358 7.77173 9.08568 7.90677 9.25592 8.07701" stroke="white" stroke-linecap="round" stroke-linejoin="round"/>
</svg>
