<svg width="23" height="27" viewBox="0 0 23 27" fill="none" xmlns="http://www.w3.org/2000/svg">
<path d="M12.5319 6.28233C12.5504 6.28233 12.569 6.28233 12.5876 6.28233C12.8841 6.27271 13.1733 6.19069 13.4283 6.04391C13.4463 6.08236 13.4674 6.11944 13.4912 6.15485C13.7368 6.5483 13.9505 6.95958 14.1305 7.38499L14.1758 7.48474C14.2811 7.71459 14.4696 7.89927 14.7059 8.00402C14.9422 8.10876 15.2099 8.12633 15.4587 8.05343L16.1726 7.84367C16.4213 7.77071 16.6339 7.61238 16.7704 7.39846C16.9068 7.18454 16.9578 6.92976 16.9136 6.68205L16.8941 6.5746C16.7997 6.12422 16.7415 5.66743 16.7201 5.20835C16.7201 5.1656 16.7168 5.12291 16.7102 5.08063C17.0056 5.06605 17.2925 4.97947 17.544 4.82891C17.855 4.64036 18.0953 4.36019 18.2294 4.02966C18.3635 3.69912 18.3844 3.33568 18.2889 2.99282C18.1935 2.64995 17.9867 2.34579 17.6992 2.12509C17.4116 1.90439 17.0583 1.77882 16.6914 1.76685C16.6225 1.7708 16.5534 1.76036 16.489 1.73623C16.4245 1.7121 16.3662 1.67485 16.3179 1.62701C16.0867 1.30107 15.7763 1.035 15.414 0.852136C15.0517 0.669274 14.6485 0.575209 14.2399 0.578194C14.0019 0.577814 13.7651 0.611348 13.5372 0.677715C13.0309 0.829193 12.5872 1.13174 12.2696 1.54203C11.952 1.95231 11.7768 2.44929 11.769 2.96179C11.7564 3.02753 11.7293 3.08986 11.6895 3.14453C11.6497 3.19919 11.5981 3.2449 11.5384 3.27854C11.1982 3.51882 10.9602 3.87088 10.8692 4.26872C10.7782 4.66656 10.8403 5.08286 11.0439 5.43956C11.1919 5.69549 11.4078 5.90856 11.6694 6.05673C11.931 6.2049 12.2287 6.28278 12.5319 6.28233ZM15.963 7.17406L15.249 7.38382C15.1693 7.40744 15.0833 7.40198 15.0075 7.36849C14.9316 7.33499 14.871 7.27578 14.8372 7.20203C14.6265 6.70016 14.3742 6.21558 14.0827 5.75303C14.0682 5.73297 14.0584 5.71002 14.0542 5.68585C14.05 5.66168 14.0514 5.6369 14.0583 5.61333C14.0652 5.58975 14.0775 5.56796 14.0942 5.54955C14.111 5.53114 14.1317 5.51657 14.155 5.50691L14.4097 5.40017C14.4312 5.39129 14.4543 5.38662 14.4777 5.38642C14.503 5.38639 14.528 5.3918 14.5508 5.40224C14.5737 5.41267 14.5939 5.42789 14.61 5.44678L15.0519 5.96443C15.0733 5.9794 15.0979 5.98939 15.1239 5.99362C15.1499 5.99786 15.1766 5.99622 15.2018 5.98885C15.2271 5.98147 15.2502 5.96855 15.2694 5.95109C15.2886 5.93363 15.3034 5.91211 15.3126 5.88821L15.3832 5.22024C15.387 5.18449 15.4027 5.1509 15.4279 5.12451C15.4531 5.09811 15.4865 5.08035 15.523 5.07387L15.796 5.02609C15.8063 5.02425 15.8168 5.02331 15.8273 5.02329C15.85 5.02326 15.8725 5.02762 15.8934 5.03612C15.9144 5.04463 15.9333 5.0571 15.9492 5.07281C15.965 5.08852 15.9775 5.10714 15.9858 5.12758C15.9941 5.14802 15.998 5.16986 15.9975 5.1918C16.0204 5.73309 16.0887 6.27169 16.2016 6.80231C16.2155 6.88191 16.1988 6.96369 16.1546 7.03218C16.1104 7.10067 16.0418 7.15115 15.9618 7.17406H15.963ZM11.9557 3.84769C12.1129 3.75177 12.2437 3.62052 12.3371 3.46513C12.4304 3.30974 12.4835 3.13481 12.4919 2.95527C12.5022 2.59427 12.6286 2.24536 12.8535 1.95712C13.0785 1.66887 13.3907 1.45563 13.7468 1.34709C13.9068 1.30055 14.0729 1.277 14.2399 1.27717C14.5287 1.27478 14.8138 1.34037 15.0705 1.46827C15.3273 1.59617 15.5481 1.78254 15.7138 2.01134C15.8239 2.15611 15.9685 2.27301 16.1353 2.35211C16.3021 2.4312 16.4862 2.47013 16.6719 2.46559C16.9148 2.47737 17.1451 2.57402 17.3199 2.7376C17.4946 2.90117 17.6021 3.12055 17.6223 3.35498C17.6354 3.5281 17.5995 3.70139 17.5186 3.85632C17.4377 4.01126 17.3148 4.14201 17.163 4.23459C17.0005 4.3335 16.8126 4.38632 16.6206 4.38701C16.4778 4.38692 16.3366 4.35728 16.2066 4.30008C16.068 4.23987 15.9176 4.20919 15.7657 4.21011C15.5296 4.21314 15.2984 4.27581 15.095 4.39191C14.8742 4.5154 14.6268 4.58782 14.3721 4.60354C14.1783 4.6093 13.9887 4.65946 13.8189 4.7499C13.649 4.84033 13.5037 4.96846 13.395 5.12375C13.3065 5.26121 13.1839 5.37516 13.0384 5.45529C12.8928 5.53542 12.7289 5.57919 12.5615 5.58266H12.5302C12.3561 5.58158 12.1854 5.53613 12.0353 5.4509C11.8851 5.36566 11.7609 5.24366 11.675 5.09718C11.5574 4.89135 11.521 4.65123 11.5726 4.42141C11.6243 4.1916 11.7604 3.98773 11.9557 3.84769Z" fill="black"/>
<path d="M4.67833 7.79379C4.69959 7.79379 4.72108 7.79379 4.74329 7.79379C5.25324 7.82248 5.75429 7.65142 6.13998 7.31696C6.55004 6.90737 6.62562 6.29677 6.61665 5.85721C6.61565 5.65426 6.53451 5.45989 6.39086 5.31635C6.2472 5.17282 6.05264 5.09171 5.84945 5.09065C5.4075 5.08074 4.79762 5.15742 4.3878 5.56701C3.97798 5.9766 3.90239 6.58673 3.91089 7.02699C3.91195 7.22999 3.99313 7.42438 4.13682 7.56795C4.28051 7.71152 4.4751 7.79267 4.67833 7.79379ZM4.88879 6.06814C5.14522 5.87224 5.46431 5.77637 5.78638 5.79847H5.83527C5.88582 5.79847 5.90614 5.82041 5.90755 5.87137C5.91275 6.11887 5.88393 6.57116 5.63851 6.81677C5.39309 7.06238 4.93816 7.08928 4.69179 7.08574C4.64125 7.08574 4.62093 7.0638 4.61904 7.01331C4.61479 6.76581 4.64266 6.31422 4.88879 6.06814Z" fill="black"/>
<path d="M8.92045 5.36504C8.98261 5.38191 9.04648 5.3905 9.11062 5.39064C9.27032 5.39088 9.42568 5.33521 9.55287 5.23217C9.68007 5.12913 9.77207 4.98442 9.81476 4.82022C9.93295 4.39193 10.0166 3.77437 9.74368 3.26496C9.47076 2.75555 8.92964 2.51819 8.5242 2.40909C8.33808 2.35624 8.13995 2.38377 7.97272 2.4857C7.80549 2.58764 7.68264 2.75577 7.63078 2.95367C7.5126 3.38196 7.42895 3.99952 7.70209 4.50893C7.97523 5.01834 8.51478 5.25617 8.92045 5.36504ZM8.27483 3.15657C8.28559 3.11805 8.30264 3.10058 8.33179 3.10058C8.34126 3.10067 8.35068 3.10203 8.35982 3.10465C8.58833 3.16614 8.99557 3.31473 9.1595 3.62052C9.32343 3.9263 9.2362 4.37637 9.16937 4.61756C9.16848 4.6277 9.16532 4.63747 9.16014 4.64603C9.15497 4.65459 9.14793 4.6617 9.13964 4.66675C9.13134 4.67179 9.12203 4.67463 9.11249 4.67503C9.10295 4.67542 9.09346 4.67335 9.08483 4.669C8.85631 4.60775 8.44885 4.45916 8.28514 4.15337C8.12144 3.84758 8.20867 3.39752 8.27483 3.15657Z" fill="black"/>
<path d="M13.8294 13.5117H13.8414C14.0972 13.4947 14.3463 13.4237 14.5723 13.3034C14.7983 13.1832 14.996 13.0165 15.1522 12.8145C15.7095 12.1596 15.8056 11.2437 15.3597 10.815C14.8592 10.3334 13.9895 10.4186 13.2917 11.0176C12.9207 11.328 12.6862 11.7702 12.6382 12.25C12.6238 12.3979 12.6391 12.5472 12.6833 12.6891C12.7274 12.831 12.7996 12.9628 12.8955 13.0768C13.0098 13.2126 13.1527 13.3219 13.314 13.3971C13.4753 13.4722 13.6513 13.5114 13.8294 13.5117ZM13.7289 11.5211C13.9497 11.3134 14.2371 11.1896 14.5406 11.1717C14.6702 11.1651 14.7973 11.2085 14.8953 11.293C15.0231 11.4158 15.0242 11.9359 14.6425 12.3842C14.5472 12.5122 14.4264 12.6193 14.2876 12.6989C14.1488 12.7784 13.9951 12.8286 13.8359 12.8464H13.8303C13.7471 12.8458 13.665 12.8266 13.5902 12.7903C13.5154 12.754 13.4497 12.7015 13.398 12.6367C13.3234 12.5393 13.2904 12.4165 13.3061 12.295C13.3424 11.9928 13.4937 11.7159 13.7289 11.5211Z" fill="black"/>
<path d="M5.41419 13.5117C5.5803 13.5117 5.71497 13.3771 5.71497 13.2109C5.71497 13.0448 5.5803 12.9102 5.41419 12.9102C5.24807 12.9102 5.1134 13.0448 5.1134 13.2109C5.1134 13.3771 5.24807 13.5117 5.41419 13.5117Z" fill="black"/>
<path d="M22.0951 13.9293C22.4528 12.2755 21.768 10.2767 21.1494 9.38592C20.9875 9.15394 20.7505 8.98524 20.4786 8.90847C20.2066 8.8317 19.9165 8.85159 19.6576 8.96476C19.6576 8.96476 17.923 9.86392 17.3101 10.4067C17.1518 10.1753 16.973 9.95883 16.7757 9.75977C16.7717 9.75571 16.7686 9.75093 16.7643 9.74687C15.7828 8.7954 14.0396 8.99606 12.6203 10.2246C12.5805 10.2593 12.5445 10.2963 12.5058 10.3336C12.4269 10.2858 12.3151 10.2268 12.2457 10.1902C12.1127 10.1224 11.9983 10.023 11.9124 9.9007C11.8265 9.77841 11.7718 9.63695 11.753 9.48864C11.3977 7.82027 10.1718 6.75819 8.76936 6.90869C7.52482 7.04079 6.67088 7.96933 6.5383 9.33193C6.51746 9.66776 6.4688 10.0013 6.39283 10.329C6.30112 10.2441 6.21929 10.1491 6.14889 10.0457C5.17739 8.5761 3.76426 7.99298 2.5481 8.56009C1.19363 9.1917 1.03219 10.8264 1.33194 12.1455C1.45522 12.6859 1.41588 13.0946 1.21151 13.3951C1.12129 13.5304 1.04157 13.6725 0.973051 13.8201C0.684276 13.944 0.438158 14.1501 0.265209 14.4128C0.0922613 14.6756 8.97521e-05 14.9834 0.000122079 15.2981C0.000596411 18.3348 1.20526 21.2469 3.34909 23.3939C5.49292 25.5408 8.40031 26.7467 11.4317 26.7462C14.463 26.7457 17.3701 25.539 19.5132 23.3913C21.6564 21.2437 22.8601 18.3312 22.8596 15.2945C22.8594 15.0204 22.789 14.751 22.6552 14.512C22.5213 14.2729 22.3285 14.0723 22.0951 13.9293ZM19.9449 9.62122C20.052 9.57434 20.172 9.56607 20.2846 9.59781C20.3971 9.62956 20.4951 9.69937 20.5621 9.79536C21.1174 10.5947 21.6735 12.3249 21.4115 13.6987C21.3616 13.694 21.3111 13.6911 21.26 13.6911H19.0047C19.2615 12.8681 19.5281 12.2059 19.5317 12.1969C19.5688 12.105 19.5681 12.0021 19.5295 11.9108C19.491 11.8195 19.4178 11.7473 19.3261 11.71C19.2344 11.6728 19.1317 11.6735 19.0405 11.7122C18.9494 11.7508 18.8773 11.8241 18.8401 11.9159C18.8234 11.9575 18.5063 12.7444 18.2239 13.6911H17.6874C17.7947 13.4001 17.8668 13.0973 17.902 12.7891C17.9734 12.2009 17.8913 11.6042 17.6635 11.0574C18.2378 10.5149 19.9449 9.62122 19.9449 9.62122ZM17.1787 11.9594C17.2156 12.2081 17.2198 12.4605 17.1911 12.7102C17.1513 13.0503 17.0564 13.3816 16.9102 13.6911H16.3234C16.7343 13.1852 17.0267 12.5935 17.1792 11.9594H17.1787ZM13.0886 10.7679C13.6658 10.2313 14.4121 9.91397 15.1983 9.87085C15.5926 9.85572 15.9771 9.99662 16.2685 10.2631C16.7817 10.7614 16.6553 12.1962 15.7229 13.2986C15.6034 13.4378 15.4745 13.5688 15.3373 13.6906H12.1675C12.0252 13.4198 11.9645 13.1135 11.9927 12.8089C12.0792 12.0117 12.4723 11.2796 13.0886 10.7679ZM7.2513 9.40049C7.28802 9.01827 7.5117 7.7627 8.84543 7.62104C10.0439 7.49419 10.8285 8.57801 11.0543 9.63866C11.0942 9.8901 11.1927 10.1286 11.3419 10.3347C11.491 10.5408 11.6866 10.7088 11.9128 10.825C11.9471 10.8429 11.9805 10.8641 12.0144 10.884C11.5962 11.4267 11.3411 12.0776 11.2789 12.7604C11.2547 13.0752 11.2923 13.3917 11.3896 13.692H10.4178C10.2705 12.1833 10.0091 10.7299 9.99553 10.6546C9.98747 10.6057 9.96978 10.559 9.94349 10.517C9.91719 10.475 9.88282 10.4387 9.84238 10.4102C9.80194 10.3817 9.75623 10.3615 9.70792 10.3508C9.65962 10.3402 9.60968 10.3393 9.56102 10.3481C9.51235 10.357 9.46594 10.3755 9.42449 10.4025C9.38303 10.4296 9.34736 10.4646 9.31955 10.5056C9.29175 10.5465 9.27236 10.5927 9.26252 10.6412C9.25269 10.6898 9.2526 10.7398 9.26226 10.7884C9.26536 10.8061 9.52051 12.2258 9.66765 13.692H7.67243C7.6473 13.2559 7.48738 12.8384 7.21483 12.4973C6.94228 12.1563 6.5706 11.9086 6.15127 11.7886C6.28711 11.5798 6.4472 11.3878 6.6282 11.2167C7.14542 10.7332 7.18668 10.2113 7.23008 9.65872C7.2358 9.57511 7.24248 9.48935 7.2513 9.40049ZM4.19802 13.6911C4.22749 13.3449 4.38559 13.0224 4.64105 12.7874C4.8965 12.5524 5.2307 12.422 5.57753 12.422C5.92436 12.422 6.25856 12.5524 6.51401 12.7874C6.76946 13.0224 6.92757 13.3449 6.95704 13.6911H4.19802ZM2.03111 11.9847C1.94884 11.6233 1.60188 9.7913 2.85071 9.20866C3.91521 8.7125 4.94441 9.51921 5.55345 10.4404C5.66526 10.6046 5.79712 10.7543 5.94596 10.8859C5.71514 11.1367 5.51728 11.4161 5.35719 11.7172C4.86188 11.7703 4.40149 11.9979 4.05805 12.3593C3.71462 12.7208 3.51044 13.1927 3.48192 13.6908H1.86824C2.13946 13.1643 2.19779 12.5533 2.03111 11.9847ZM11.4306 26.0311C8.58942 26.0276 5.86565 24.8952 3.85697 22.8823C1.84828 20.8694 0.71875 18.1404 0.716226 15.2942C0.716479 15.0592 0.809794 14.8339 0.975697 14.6677C1.1416 14.5015 1.36654 14.408 1.60116 14.4077H21.26C21.3765 14.408 21.4918 14.4312 21.5993 14.476C21.7068 14.5209 21.8044 14.5865 21.8866 14.6691C21.9687 14.7518 22.0339 14.8499 22.0782 14.9577C22.1225 15.0656 22.1452 15.1812 22.145 15.2978C22.1417 18.1435 21.0118 20.8716 19.0032 22.8838C16.9946 24.896 14.2712 26.0278 11.4306 26.0311Z" fill="black"/>
</svg>
