<svg width="61" height="55" viewBox="0 0 61 55" fill="none" xmlns="http://www.w3.org/2000/svg">
<path d="M59.1547 44.2031L35.9764 4.15356C35.4203 3.19444 34.622 2.39826 33.6614 1.84479C32.7008 1.29133 31.6116 1 30.5029 1C29.3943 1 28.3051 1.29133 27.3445 1.84479C26.3838 2.39826 25.5855 3.19444 25.0295 4.15356V4.15563L1.85112 44.2031C1.29463 45.1642 1.00108 46.2549 1 47.3654C0.998928 48.476 1.29037 49.5673 1.845 50.5294C2.39963 51.4916 3.19789 52.2907 4.15945 52.8463C5.12101 53.402 6.21196 53.6946 7.32253 53.6947H53.6833C54.7939 53.6946 55.8848 53.402 56.8464 52.8463C57.808 52.2907 58.6062 51.4916 59.1609 50.5294C59.7155 49.5673 60.0069 48.476 60.0059 47.3654C60.0048 46.2549 59.7112 45.1642 59.1547 44.2031ZM28.393 19.9708C28.393 19.4118 28.6151 18.8756 29.0104 18.4803C29.4057 18.085 29.9418 17.863 30.5009 17.863C31.0599 17.863 31.5961 18.085 31.9914 18.4803C32.3867 18.8756 32.6087 19.4118 32.6087 19.9708V32.6181C32.6087 33.1771 32.3867 33.7132 31.9914 34.1085C31.5961 34.5038 31.0599 34.7259 30.5009 34.7259C29.9418 34.7259 29.4057 34.5038 29.0104 34.1085C28.6151 33.7132 28.393 33.1771 28.393 32.6181V19.9708ZM30.5024 45.266C29.8771 45.266 29.2658 45.0806 28.7458 44.7332C28.2259 44.3858 27.8206 43.8919 27.5813 43.3142C27.342 42.7365 27.2794 42.1007 27.4014 41.4874C27.5234 40.8741 27.8245 40.3107 28.2667 39.8685C28.7089 39.4263 29.2722 39.1252 29.8856 39.0032C30.4989 38.8812 31.1346 38.9438 31.7124 39.1831C32.2901 39.4224 32.7839 39.8277 33.1314 40.3476C33.4788 40.8676 33.6642 41.4789 33.6642 42.1042C33.6642 42.9428 33.331 43.747 32.7381 44.3399C32.1452 44.9329 31.341 45.266 30.5024 45.266Z" fill="#FFCA35" stroke="#1D2A40" stroke-width="1.517"/>
</svg>
