<svg width="23" height="23" viewBox="0 0 23 23" fill="none" xmlns="http://www.w3.org/2000/svg">
<path d="M2.87451 9.34375H7.18701V18.6875H2.87451C2.68389 18.6875 2.50107 18.6118 2.36628 18.477C2.23149 18.3422 2.15576 18.1594 2.15576 17.9688V10.0625C2.15576 9.87188 2.23149 9.68906 2.36628 9.55427C2.50107 9.41948 2.68389 9.34375 2.87451 9.34375V9.34375Z" stroke="#273A62" stroke-width="1.5" stroke-linecap="round" stroke-linejoin="round"/>
<path d="M7.18701 9.34375L10.7808 2.15625C11.1583 2.15625 11.5322 2.23061 11.881 2.3751C12.2298 2.51958 12.5467 2.73135 12.8137 2.99832C13.0807 3.26529 13.2924 3.58222 13.4369 3.93104C13.5814 4.27985 13.6558 4.6537 13.6558 5.03125V7.1875H19.2149C19.4187 7.1875 19.6202 7.23085 19.806 7.31466C19.9918 7.39848 20.1577 7.52085 20.2925 7.67366C20.4274 7.82646 20.5283 8.00621 20.5884 8.20097C20.6485 8.39573 20.6666 8.60105 20.6413 8.8033L19.5632 17.4283C19.5197 17.776 19.3508 18.0958 19.0881 18.3277C18.8254 18.5595 18.4871 18.6875 18.1368 18.6875H7.18701" stroke="#273A62" stroke-width="1.5" stroke-linecap="round" stroke-linejoin="round"/>
</svg>
