<svg width="15" height="15" viewBox="0 0 15 15" fill="none" xmlns="http://www.w3.org/2000/svg">
<path d="M7.5 14C11.0899 14 14 11.0899 14 7.5C14 3.91015 11.0899 1 7.5 1C3.91015 1 1 3.91015 1 7.5C1 11.0899 3.91015 14 7.5 14Z" stroke="#000000" stroke-miterlimit="10"/>
<path d="M7.49996 9.66667C8.99573 9.66667 10.2083 8.4541 10.2083 6.95833C10.2083 5.46256 8.99573 4.25 7.49996 4.25C6.00419 4.25 4.79163 5.46256 4.79163 6.95833C4.79163 8.4541 6.00419 9.66667 7.49996 9.66667Z" stroke="#000000" stroke-miterlimit="10"/>
<path d="M3.15308 12.3327C3.56109 11.5305 4.18314 10.8568 4.95035 10.3863C5.71755 9.9158 6.6 9.66675 7.50001 9.66675C8.40001 9.66675 9.28246 9.91579 10.0497 10.3863C10.8169 10.8568 11.4389 11.5305 11.8469 12.3327" stroke="#000000" stroke-linecap="round" stroke-linejoin="round"/>
</svg>
