<svg width="44" height="44" viewBox="0 0 44 44" fill="none" xmlns="http://www.w3.org/2000/svg">
<path d="M22 43C33.598 43 43 33.598 43 22C43 10.402 33.598 1 22 1C10.402 1 1 10.402 1 22C1 33.598 10.402 43 22 43Z" fill="#40ADA2" stroke="#40ADA2" stroke-width="2" stroke-linecap="round" stroke-linejoin="round"/>
<path d="M31.7315 16.366L18.7558 28.6586L12.2681 22.5123" stroke="white" stroke-width="2.5" stroke-linecap="round" stroke-linejoin="round"/>
</svg>
